EESchema Schematic File Version 4
LIBS:ICE40_ONION_MCU-cache
EELAYER 26 0
EELAYER END
$Descr A3 16535 11693
encoding utf-8
Sheet 1 5
Title ""
Date ""
Rev ""
Comp ""
Comment1 ""
Comment2 ""
Comment3 ""
Comment4 ""
$EndDescr
$Sheet
S 9550 1350 2925 3700
U 5B9EA780
F0 "ICE40" 50
F1 "ICE40.sch" 50
F2 "ICE40_NL_NADV" I L 9550 2525 50 
F3 "ICE40_NWAIT" I L 9550 2275 50 
F4 "ICE40_NE1" I L 9550 2400 50 
F5 "ICE40_NWE" I L 9550 2650 50 
F6 "ICE40_NOE" I L 9550 2775 50 
F7 "VCC_ICE40_3V3" I L 9550 1525 50 
F8 "ICE40_FCM_CLK" I L 9550 3150 50 
F9 "ICE40_MOSI" I L 9550 3475 50 
F10 "ICE40_MISO" I L 9550 3350 50 
F11 "ICE40_CRESET_B" I L 9550 3975 50 
F12 "ICE40_CDONE" I L 9550 3850 50 
F13 "ICE40_SCK" I L 9550 3600 50 
F14 "ICE40_SPI_SS_B" I L 9550 3725 50 
F15 "VCC_ICE40_1V2" I L 9550 1650 50 
F16 "ICE40_NBL_0" I L 9550 2900 50 
F17 "ICE40_NBL_1" I L 9550 3025 50 
F18 "FCM_A[24..16]" I L 9550 1875 50 
F19 "FCM_DA[0..15]" I L 9550 2050 50 
$EndSheet
$Sheet
S 4700 1350 2675 3600
U 5BBE9BF1
F0 "STM32F446ZEH6" 50
F1 "STM32F446ZEH6.sch" 50
F2 "MCU_NE1" I R 7375 2400 50 
F3 "MCU_NWAIT" I R 7375 2275 50 
F4 "MCU_NWE" I R 7375 2650 50 
F5 "MCU_NOE" I R 7375 2775 50 
F6 "MCU_FCM_CLK" I R 7375 3150 50 
F7 "MCU_NADV" I R 7375 2525 50 
F8 "MCU_NBL0" I R 7375 2900 50 
F9 "MCU_NBL1" I R 7375 3025 50 
F10 "VCC_MCU_3V3" I R 7375 1600 50 
F11 "FCM_A[24..16]" I R 7375 1875 50 
F12 "FCM_DA[0..15]" I R 7375 2050 50 
F13 "MCU_JTAG_TDI" I R 7375 4225 50 
F14 "MCU_JTAG_TCK" I R 7375 4375 50 
F15 "MCU_JTAG_TMS" I R 7375 4500 50 
F16 "MCU_JTAG_TDO" I R 7375 4625 50 
F17 "MCU_JTAG_TRS" I R 7375 4750 50 
F18 "MCU_BOOt" I R 7375 4075 50 
F19 "VCC_MCU_1V2" I R 7375 3550 50 
F20 "MCU_TACTILE_RESET" I R 7375 3775 50 
$EndSheet
Wire Bus Line
	7375 1875 9550 1875
Wire Bus Line
	7375 2050 9550 2050
$Comp
L Device:R R?
U 1 1 5BA6088B
P 11975 5825
AR Path="/5B9EA780/5BA6088B" Ref="R?"  Part="1" 
AR Path="/5BA6088B" Ref="R6"  Part="1" 
F 0 "R6" V 12050 5850 50  0000 L CNN
F 1 "100" V 12050 5675 50  0000 L CNN
F 2 "Resistor_SMD:R_1206_3216Metric" V 11905 5825 50  0001 C CNN
F 3 "~" H 11975 5825 50  0001 C CNN
	1    11975 5825
	0    -1   -1   0   
$EndComp
$Comp
L Device:R R?
U 1 1 5BA60ABC
P 11975 6000
AR Path="/5B9EA780/5BA60ABC" Ref="R?"  Part="1" 
AR Path="/5BA60ABC" Ref="R7"  Part="1" 
F 0 "R7" V 12050 6025 50  0000 L CNN
F 1 "100" V 12050 5850 50  0000 L CNN
F 2 "Resistor_SMD:R_1206_3216Metric" V 11905 6000 50  0001 C CNN
F 3 "~" H 11975 6000 50  0001 C CNN
	1    11975 6000
	0    -1   -1   0   
$EndComp
$Comp
L Device:R R?
U 1 1 5BA60BB1
P 11975 6175
AR Path="/5B9EA780/5BA60BB1" Ref="R?"  Part="1" 
AR Path="/5BA60BB1" Ref="R8"  Part="1" 
F 0 "R8" V 12050 6200 50  0000 L CNN
F 1 "100" V 12050 6025 50  0000 L CNN
F 2 "Resistor_SMD:R_1206_3216Metric" V 11905 6175 50  0001 C CNN
F 3 "~" H 11975 6175 50  0001 C CNN
	1    11975 6175
	0    -1   -1   0   
$EndComp
$Comp
L Device:R R?
U 1 1 5BA60C00
P 11975 6350
AR Path="/5B9EA780/5BA60C00" Ref="R?"  Part="1" 
AR Path="/5BA60C00" Ref="R9"  Part="1" 
F 0 "R9" V 12050 6375 50  0000 L CNN
F 1 "100" V 12050 6200 50  0000 L CNN
F 2 "Resistor_SMD:R_1206_3216Metric" V 11905 6350 50  0001 C CNN
F 3 "~" H 11975 6350 50  0001 C CNN
	1    11975 6350
	0    -1   -1   0   
$EndComp
Text Label 12125 5825 0    50   ~ 0
SPI_SDO
Text Label 9550 3350 2    50   ~ 0
SPI_SDO
Text Label 12125 6000 0    50   ~ 0
SPI_SDI
Text Label 9550 3475 2    50   ~ 0
SPI_SDI
Text Label 12125 6175 0    50   ~ 0
SPI_CS
Text Label 9550 3725 2    50   ~ 0
SPI_CS
Text Label 12125 6350 0    50   ~ 0
SPI_CLK
Text Label 9550 3600 2    50   ~ 0
SPI_CLK
Wire Wire Line
	7375 2275 9550 2275
Wire Wire Line
	7375 2400 9550 2400
Wire Wire Line
	7375 2525 9550 2525
Wire Wire Line
	7375 2650 9550 2650
Wire Wire Line
	7375 2775 9550 2775
Wire Wire Line
	7375 2900 9550 2900
Wire Wire Line
	7375 3025 9550 3025
Wire Wire Line
	7375 3150 9550 3150
Text Label 11825 6525 0    50   ~ 0
CDONE
Text Label 11825 6700 0    50   ~ 0
CRESET
Text Label 9550 3850 2    50   ~ 0
CDONE
Text Label 9550 3975 2    50   ~ 0
CRESET
Wire Wire Line
	7375 4750 8325 4750
Wire Wire Line
	8325 4750 8325 8050
Wire Wire Line
	8325 8050 9575 8050
Wire Wire Line
	7375 4625 8450 4625
Wire Wire Line
	8450 4625 8450 7925
Wire Wire Line
	8450 7925 9575 7925
Wire Wire Line
	7375 4500 8550 4500
Wire Wire Line
	8550 4500 8550 7775
Wire Wire Line
	8550 7775 9575 7775
Wire Wire Line
	7375 4375 8675 4375
Wire Wire Line
	8675 4375 8675 7625
Wire Wire Line
	8675 7625 9575 7625
Wire Wire Line
	7375 4225 8775 4225
Wire Wire Line
	8775 4225 8775 7450
Wire Wire Line
	8775 7450 9575 7450
Wire Wire Line
	7375 4075 8900 4075
Wire Wire Line
	8900 4075 8900 7300
Wire Wire Line
	8900 7300 9575 7300
$Sheet
S 4850 5500 2150 1625
U 5BB2FBFA
F0 "POWER" 50
F1 "POWER.sch" 50
F2 "3V3_FPGA" I R 7000 5825 50 
F3 "3V3_MCU" I R 7000 6075 50 
F4 "1V2_FPGA" I R 7000 6350 50 
$EndSheet
Text Label 7375 1600 0    50   ~ 0
3V3_MCU
Text Label 7000 6075 0    50   ~ 0
3V3_MCU
Text Label 7000 5825 0    50   ~ 0
3V3_FPGA
Text Label 9550 1525 2    50   ~ 0
3V3_FPGA
Text Label 7000 6350 0    50   ~ 0
1V2_FPGA
Text Label 9550 1650 2    50   ~ 0
1V2_FPGA
Text Label 11825 5575 0    50   ~ 0
3V3_MCU
Text Label 7375 3550 0    50   ~ 0
1V2_FPGA
$Sheet
S 9575 5400 2250 3375
U 5C5D920E
F0 "ONION" 50
F1 "ONION.sch" 50
F2 "ONION_SPI_MISO" I R 11825 5825 50 
F3 "ONION_SPI_MOSI" I R 11825 6000 50 
F4 "ONION_SPI_CS" I R 11825 6175 50 
F5 "ONION_SPI_CLK" I R 11825 6350 50 
F6 "ONION_CDONE" I R 11825 6525 50 
F7 "ONION_CRESET_B" I R 11825 6700 50 
F8 "ONION_3V3" I R 11825 5575 50 
F9 "ONION_JTAG_TRS" I L 9575 8050 50 
F10 "ONION_JTAG_TDO" I L 9575 7925 50 
F11 "ONION_JTAG_TDI" I L 9575 7450 50 
F12 "ONION_JTAG_TMS" I L 9575 7775 50 
F13 "ONION_JTAG_TCK" I L 9575 7625 50 
F14 "ONION_BOOT1MCU" I L 9575 7300 50 
F15 "TACTILE_RESET" I L 9575 7150 50 
$EndSheet
Wire Wire Line
	9575 7150 9000 7150
Wire Wire Line
	7375 3775 9000 3775
Wire Wire Line
	9000 3775 9000 7150
$EndSCHEMATC
