EESchema Schematic File Version 4
LIBS:ICE40_ONION_MCU-cache
EELAYER 26 0
EELAYER END
$Descr A3 16535 11693
encoding utf-8
Sheet 2 5
Title ""
Date ""
Rev ""
Comp ""
Comment1 ""
Comment2 ""
Comment3 ""
Comment4 ""
$EndDescr
$Comp
L pkl_lattice:ICE40HX4K-TQ144_u U1
U 4 1 5B9EA950
P 11375 8000
F 0 "U1" H 11450 9800 60  0000 C CNN
F 1 "ICE40HX4K-TQ144_u" H 11450 9650 60  0000 C CNN
F 2 "ICE40_ONION_MCU:TQFP-144_20x20mm_Pitch0.5mm" H 11375 8000 60  0001 C CNN
F 3 "" H 11375 8000 60  0001 C CNN
	4    11375 8000
	1    0    0    -1  
$EndComp
$Comp
L pkl_lattice:ICE40HX4K-TQ144_u U1
U 7 1 5B9EAA65
P 2025 3825
F 0 "U1" H 2075 4600 60  0000 C CNN
F 1 "ICE40HX4K-TQ144_u" H 2050 4500 60  0000 C CNN
F 2 "ICE40_ONION_MCU:TQFP-144_20x20mm_Pitch0.5mm" H 2025 3825 60  0001 C CNN
F 3 "" H 2025 3825 60  0001 C CNN
	7    2025 3825
	1    0    0    -1  
$EndComp
$Comp
L pkl_lattice:ICE40HX4K-TQ144_u U1
U 5 1 5B9EAB38
P 1950 6475
F 0 "U1" H 1950 7050 60  0000 C CNN
F 1 "ICE40HX4K-TQ144_u" H 1975 6950 60  0000 C CNN
F 2 "ICE40_ONION_MCU:TQFP-144_20x20mm_Pitch0.5mm" H 1950 6475 60  0001 C CNN
F 3 "" H 1950 6475 60  0001 C CNN
	5    1950 6475
	1    0    0    -1  
$EndComp
$Comp
L pkl_lattice:ICE40HX4K-TQ144_u U1
U 6 1 5B9EAF57
P 2050 1750
F 0 "U1" H 2100 2375 60  0000 C CNN
F 1 "ICE40HX4K-TQ144_u" H 2050 2225 60  0000 C CNN
F 2 "ICE40_ONION_MCU:TQFP-144_20x20mm_Pitch0.5mm" H 2050 1750 60  0001 C CNN
F 3 "" H 2050 1750 60  0001 C CNN
	6    2050 1750
	1    0    0    -1  
$EndComp
$Comp
L pkl_lattice:ICE40HX4K-TQ144_u U1
U 1 1 5B9EB0A2
P 7850 3300
F 0 "U1" H 7900 5025 60  0000 C CNN
F 1 "ICE40HX4K-TQ144_u" H 7900 4900 60  0000 C CNN
F 2 "ICE40_ONION_MCU:TQFP-144_20x20mm_Pitch0.5mm" H 7850 3300 60  0001 C CNN
F 3 "" H 7850 3300 60  0001 C CNN
	1    7850 3300
	1    0    0    -1  
$EndComp
$Comp
L pkl_lattice:ICE40HX4K-TQ144_u U1
U 2 1 5B9EB1C2
P 12425 3375
F 0 "U1" H 12400 5150 60  0000 C CNN
F 1 "ICE40HX4K-TQ144_u" H 12475 5050 60  0000 C CNN
F 2 "ICE40_ONION_MCU:TQFP-144_20x20mm_Pitch0.5mm" H 12425 3375 60  0001 C CNN
F 3 "" H 12425 3375 60  0001 C CNN
	2    12425 3375
	1    0    0    -1  
$EndComp
$Comp
L pkl_lattice:ICE40HX4K-TQ144_u U1
U 8 1 5B9EB5D7
P 15000 1475
F 0 "U1" H 15106 2062 60  0000 C CNN
F 1 "ICE40HX4K-TQ144_u" H 15106 1956 60  0000 C CNN
F 2 "ICE40_ONION_MCU:TQFP-144_20x20mm_Pitch0.5mm" H 15000 1475 60  0001 C CNN
F 3 "" H 15000 1475 60  0001 C CNN
	8    15000 1475
	1    0    0    -1  
$EndComp
Text HLabel 13025 4775 2    50   Input ~ 0
ICE40_NL_NADV
Text HLabel 13025 4475 2    50   Input ~ 0
ICE40_NWAIT
Text HLabel 13025 4575 2    50   Input ~ 0
ICE40_NE1
Text HLabel 13025 4375 2    50   Input ~ 0
ICE40_NWE
Text HLabel 13025 4275 2    50   Input ~ 0
ICE40_NOE
Text HLabel 13175 1925 2    50   Input ~ 0
VCC_ICE40_3V3
Wire Wire Line
	13025 1875 13175 1875
Wire Wire Line
	13025 1975 13175 1975
Wire Wire Line
	13175 1875 13175 1975
Text Label 8450 2800 0    50   ~ 0
FCM_A17
Text Label 8450 2900 0    50   ~ 0
FCM_A16
Text Label 8450 2700 0    50   ~ 0
FCM_A18
Text Label 8450 4700 0    50   ~ 0
FCM_A19
Text Label 8450 4500 0    50   ~ 0
FCM_A21
Text Label 8450 4400 0    50   ~ 0
FCM_A22
Text Label 13025 4675 0    50   ~ 0
FCM_A24
Entry Wire Line
	9175 4600 9075 4500
Entry Wire Line
	9175 4800 9075 4700
Wire Wire Line
	8450 2900 9075 2900
Wire Wire Line
	8450 4400 9075 4400
Wire Wire Line
	8450 4500 9075 4500
Wire Wire Line
	8450 4700 9075 4700
Wire Wire Line
	13025 4675 13650 4675
Entry Wire Line
	9175 3000 9075 2900
Text Label 8450 2600 0    50   ~ 0
FCM_DA0
Text Label 8450 2500 0    50   ~ 0
FCM_DA1
Text Label 8450 2300 0    50   ~ 0
FCM_DA2
Text Label 8450 2200 0    50   ~ 0
FCM_DA3
Entry Wire Line
	9175 3200 9075 3100
Entry Wire Line
	9175 3300 9075 3200
Entry Wire Line
	9175 3600 9075 3500
Entry Wire Line
	9175 3700 9075 3600
Wire Wire Line
	8450 3200 9075 3200
Wire Wire Line
	8450 3100 9075 3100
Wire Wire Line
	8450 3000 9075 3000
Wire Wire Line
	8450 2600 9075 2600
Wire Wire Line
	8450 2500 9075 2500
Wire Wire Line
	8450 3500 9075 3500
Wire Wire Line
	8450 3600 9075 3600
Text Label 8450 4000 0    50   ~ 0
FCM_DA7
Text Label 8450 3900 0    50   ~ 0
FCM_DA8
Text Label 8450 3800 0    50   ~ 0
FCM_DA9
Text Label 8450 3700 0    50   ~ 0
FCM_DA10
Text Label 8450 3600 0    50   ~ 0
FCM_DA11
Text Label 8450 3500 0    50   ~ 0
FCM_DA12
Text Label 8450 3200 0    50   ~ 0
FCM_DA13
Text Label 8450 3100 0    50   ~ 0
FCM_DA14
Text Label 8450 3000 0    50   ~ 0
FCM_DA15
Text Label 13025 2275 0    50   ~ 0
ICE40_IOR_166
Text Label 8500 7325 0    50   ~ 0
ICE40_IOB_GBIN5
Text Label 8450 3300 0    50   ~ 0
ICE40_IOR_GBIN0
Text HLabel 5275 1650 2    50   Input ~ 0
VCC_ICE40_3V3
Wire Wire Line
	8450 1900 8600 1900
Wire Wire Line
	8450 2000 8600 2000
Wire Wire Line
	8600 1900 8600 2000
Text HLabel 8650 6075 2    50   Input ~ 0
VCC_ICE40_3V3
Wire Wire Line
	8500 6025 8650 6025
Wire Wire Line
	8500 6125 8650 6125
Wire Wire Line
	8650 6025 8650 6125
Text HLabel 12125 6550 2    50   Input ~ 0
VCC_ICE40_3V3
Wire Wire Line
	11975 6500 12125 6500
Wire Wire Line
	11975 6600 12125 6600
Wire Wire Line
	12125 6500 12125 6600
Text Label 11975 8300 0    50   ~ 0
ICE40_IOL_GBIN7
Text Label 8500 8025 0    50   ~ 0
ICE40_CBSEL0
Text Label 8500 8125 0    50   ~ 0
ICE40_CBSEL1
Text Label 11975 9500 0    50   ~ 0
ICE40_IOL_25B
Text Label 11975 9400 0    50   ~ 0
ICE40_IOL_25A
Text Label 11975 9300 0    50   ~ 0
ICE40_IOL_24B
Text Label 11975 9200 0    50   ~ 0
ICE40_IOL_24A
Text Label 11975 9100 0    50   ~ 0
ICE40_IOL_23B
Text Label 11975 9000 0    50   ~ 0
ICE40_IOL_23A
Text Label 11975 8900 0    50   ~ 0
ICE40_IOL_18B
Text Label 11975 8800 0    50   ~ 0
ICE40_IOL_18A
Text Label 11975 8700 0    50   ~ 0
ICE40_IOL_17B
Text Label 11975 8600 0    50   ~ 0
ICE40_IOL_17A
Text Label 11975 8500 0    50   ~ 0
ICE40_IOL_14B
Text Label 11975 8200 0    50   ~ 0
ICE40_IOL_13A
Text Label 11975 8000 0    50   ~ 0
ICE40_IOL_12A
Text Label 11975 7900 0    50   ~ 0
ICE40_IOL_10B
Text Label 11975 7800 0    50   ~ 0
ICE40_IOL_10A
Text Label 11975 7700 0    50   ~ 0
ICE40_IOL_8B
Text Label 11975 7600 0    50   ~ 0
ICE40_IOL_8A
Text Label 11975 7500 0    50   ~ 0
ICE40_IOL_5B
Text Label 11975 7400 0    50   ~ 0
ICE40_IOL_5A
Text Label 11975 7300 0    50   ~ 0
ICE40_IOL_4B
Text Label 11975 7200 0    50   ~ 0
ICE40_IOL_4A
Text Label 11975 7100 0    50   ~ 0
ICE40_IOL_3B
Text Label 11975 7000 0    50   ~ 0
ICE40_IOL_3A
Text Label 11975 6900 0    50   ~ 0
ICE40_IOL_2B
Text Label 11975 6800 0    50   ~ 0
ICE40_IOL_2A
$Comp
L elementos_creados:IS25LP128F U2
U 1 1 5BA3C3FF
P 5725 6900
F 0 "U2" H 5650 7465 50  0000 C CNN
F 1 "IS25LP128F" H 5650 7374 50  0000 C CNN
F 2 "Package_SO:SOIJ-8_5.3x5.3mm_P1.27mm" H 5675 7450 50  0001 C CNN
F 3 "" H 5675 7450 50  0001 C CNN
	1    5725 6900
	1    0    0    -1  
$EndComp
Text HLabel 3100 6675 2    50   Input ~ 0
ICE40_MOSI
Text HLabel 3100 6575 2    50   Input ~ 0
ICE40_MISO
Text HLabel 3100 6475 2    50   Input ~ 0
ICE40_CRESET_B
Text HLabel 3100 6375 2    50   Input ~ 0
ICE40_CDONE
Text HLabel 3100 6775 2    50   Input ~ 0
ICE40_SCK
Text HLabel 3100 6875 2    50   Input ~ 0
ICE40_SPI_SS_B
Wire Wire Line
	2550 6375 3025 6375
Wire Wire Line
	2550 6475 3100 6475
Wire Wire Line
	2550 6575 3100 6575
Wire Wire Line
	2550 6675 3100 6675
Text Label 2550 6575 0    50   ~ 0
ICE40_SDO
Text Label 2550 6675 0    50   ~ 0
ICE40_SDI
Text Label 5125 6600 2    50   ~ 0
ICE40_SDI
Text Label 5125 6750 2    50   ~ 0
ICE40_SDO
Text Label 2550 6775 0    50   ~ 0
SPI_SCK
Text Label 5125 6900 2    50   ~ 0
SPI_SCK
Text HLabel 4600 7350 0    50   Input ~ 0
VCC_ICE40_3V3
Text Label 2550 6875 0    50   ~ 0
SPI_CS
Text Label 5125 7200 2    50   ~ 0
SPI_CS
Wire Wire Line
	4600 7350 4725 7350
Wire Wire Line
	4725 7050 4725 7350
Wire Wire Line
	4725 7050 5125 7050
Connection ~ 4725 7350
Wire Wire Line
	4725 7350 5125 7350
Text HLabel 6575 6800 2    50   Input ~ 0
VCC_ICE40_3V3
$Comp
L power:GND #PWR0101
U 1 1 5BA763FE
P 6425 7250
F 0 "#PWR0101" H 6425 7000 50  0001 C CNN
F 1 "GND" H 6430 7077 50  0000 C CNN
F 2 "" H 6425 7250 50  0001 C CNN
F 3 "" H 6425 7250 50  0001 C CNN
	1    6425 7250
	1    0    0    -1  
$EndComp
$Comp
L Device:C_Small C22
U 1 1 5BA795CE
P 6425 6950
F 0 "C22" H 6517 6996 50  0000 L CNN
F 1 "0.1uF" H 6517 6905 50  0000 L CNN
F 2 "Capacitor_SMD:C_0805_2012Metric" H 6425 6950 50  0001 C CNN
F 3 "~" H 6425 6950 50  0001 C CNN
	1    6425 6950
	1    0    0    -1  
$EndComp
Wire Wire Line
	6425 6800 6425 6850
Wire Wire Line
	6175 6800 6425 6800
Wire Wire Line
	6175 7100 6425 7100
Wire Wire Line
	6425 7100 6425 7050
Wire Wire Line
	6425 7100 6425 7250
Connection ~ 6425 7100
Wire Wire Line
	6575 6800 6425 6800
Connection ~ 6425 6800
$Comp
L Device:C_Small C7
U 1 1 5BA863EE
P 2850 5900
F 0 "C7" H 2942 5946 50  0000 L CNN
F 1 "0.1uF" H 2942 5855 50  0000 L CNN
F 2 "Capacitor_SMD:C_0805_2012Metric" H 2850 5900 50  0001 C CNN
F 3 "~" H 2850 5900 50  0001 C CNN
	1    2850 5900
	1    0    0    -1  
$EndComp
$Comp
L power:GND #PWR0102
U 1 1 5BA87B8B
P 2850 6150
F 0 "#PWR0102" H 2850 5900 50  0001 C CNN
F 1 "GND" H 2855 5977 50  0000 C CNN
F 2 "" H 2850 6150 50  0001 C CNN
F 3 "" H 2850 6150 50  0001 C CNN
	1    2850 6150
	1    0    0    -1  
$EndComp
Wire Wire Line
	2850 6000 2850 6150
Text HLabel 2875 5625 2    50   Input ~ 0
VCC_ICE40_3V3
Wire Wire Line
	2850 5800 2850 5750
Wire Wire Line
	2850 5625 2875 5625
Wire Wire Line
	2550 6175 2650 6175
Wire Wire Line
	2650 6175 2650 5750
Wire Wire Line
	2650 5750 2850 5750
Connection ~ 2850 5750
Wire Wire Line
	2850 5750 2850 5625
$Comp
L Device:R R2
U 1 1 5BA97678
P 3725 5975
F 0 "R2" H 3795 6021 50  0000 L CNN
F 1 "100" H 3795 5930 50  0000 L CNN
F 2 "Resistor_SMD:R_1206_3216Metric" V 3655 5975 50  0001 C CNN
F 3 "~" H 3725 5975 50  0001 C CNN
	1    3725 5975
	1    0    0    -1  
$EndComp
$Comp
L Device:LED D2
U 1 1 5BA979F2
P 3725 5525
F 0 "D2" V 3670 5603 50  0000 L CNN
F 1 "LED" V 3761 5603 50  0000 L CNN
F 2 "LED_SMD:LED_0603_1608Metric" H 3725 5525 50  0001 C CNN
F 3 "~" H 3725 5525 50  0001 C CNN
	1    3725 5525
	0    1    1    0   
$EndComp
Wire Wire Line
	3725 5825 3725 5675
Wire Wire Line
	3725 6125 3025 6125
Wire Wire Line
	3025 6125 3025 6375
Connection ~ 3025 6375
Wire Wire Line
	3025 6375 3100 6375
$Comp
L power:GND #PWR0103
U 1 1 5BAA79B1
P 4150 5525
F 0 "#PWR0103" H 4150 5275 50  0001 C CNN
F 1 "GND" H 4155 5352 50  0000 C CNN
F 2 "" H 4150 5525 50  0001 C CNN
F 3 "" H 4150 5525 50  0001 C CNN
	1    4150 5525
	1    0    0    -1  
$EndComp
Wire Wire Line
	4150 5375 4150 5525
Wire Wire Line
	4150 5375 3725 5375
$Comp
L Device:C_Small C1
U 1 1 5BAADCCC
P 1300 2700
F 0 "C1" H 1392 2746 50  0000 L CNN
F 1 "10uF" H 1392 2655 50  0000 L CNN
F 2 "Capacitor_SMD:C_0805_2012Metric" H 1300 2700 50  0001 C CNN
F 3 "~" H 1300 2700 50  0001 C CNN
	1    1300 2700
	1    0    0    -1  
$EndComp
$Comp
L Device:C_Small C2
U 1 1 5BAAFCE2
P 1875 2700
F 0 "C2" H 1967 2746 50  0000 L CNN
F 1 "0.1uF" H 1967 2655 50  0000 L CNN
F 2 "Capacitor_SMD:C_0805_2012Metric" H 1875 2700 50  0001 C CNN
F 3 "~" H 1875 2700 50  0001 C CNN
	1    1875 2700
	1    0    0    -1  
$EndComp
Text HLabel 2975 1450 2    50   Input ~ 0
VCC_ICE40_1V2
Wire Wire Line
	2650 1450 2950 1450
Wire Wire Line
	2650 1550 2950 1550
Wire Wire Line
	2950 1550 2950 1450
Connection ~ 2950 1450
Wire Wire Line
	2950 1450 2975 1450
Wire Wire Line
	2650 1650 2950 1650
Wire Wire Line
	2950 1650 2950 1550
Connection ~ 2950 1550
Wire Wire Line
	2650 1750 2950 1750
Wire Wire Line
	2950 1750 2950 1650
Connection ~ 2950 1650
$Comp
L pspice:DIODE D1
U 1 1 5BACB01F
P 3375 1950
F 0 "D1" H 3375 2215 50  0000 C CNN
F 1 "DIODE" H 3375 2124 50  0000 C CNN
F 2 "Diode_SMD:D_0603_1608Metric" H 3375 1950 50  0001 C CNN
F 3 "" H 3375 1950 50  0001 C CNN
	1    3375 1950
	-1   0    0    -1  
$EndComp
Wire Wire Line
	3175 1950 3125 1950
Text HLabel 3575 1950 2    50   Input ~ 0
VCC_ICE40_3V3
Wire Wire Line
	1300 2600 1875 2600
Wire Wire Line
	1875 2800 1875 2825
Wire Wire Line
	1875 2825 1300 2825
Wire Wire Line
	1300 2825 1300 2800
Wire Wire Line
	2650 2150 2650 2600
Wire Wire Line
	2650 2600 1875 2600
Connection ~ 1875 2600
Text HLabel 3050 2600 2    50   Input ~ 0
VCC_ICE40_3V3
Wire Wire Line
	2750 2600 2650 2600
Connection ~ 2650 2600
$Comp
L Device:R R1
U 1 1 5BAEE1C7
P 2900 2600
F 0 "R1" H 2970 2646 50  0000 L CNN
F 1 "1k" H 2970 2555 50  0000 L CNN
F 2 "Resistor_SMD:R_1206_3216Metric" V 2830 2600 50  0001 C CNN
F 3 "~" H 2900 2600 50  0001 C CNN
	1    2900 2600
	0    -1   -1   0   
$EndComp
Wire Wire Line
	2850 4375 2850 4625
Wire Wire Line
	1300 2825 1300 4625
Wire Wire Line
	1300 4625 2850 4625
Connection ~ 1300 2825
$Comp
L Device:C_Small C10
U 1 1 5BB093DD
P 3275 4150
F 0 "C10" H 3367 4196 50  0000 L CNN
F 1 "10uF" H 3367 4105 50  0000 L CNN
F 2 "Capacitor_SMD:C_0805_2012Metric" H 3275 4150 50  0001 C CNN
F 3 "~" H 3275 4150 50  0001 C CNN
	1    3275 4150
	1    0    0    -1  
$EndComp
Wire Wire Line
	3275 4050 3850 4050
Wire Wire Line
	3275 4275 3275 4250
Text HLabel 4600 4050 2    50   Input ~ 0
VCC_ICE40_1V2
$Comp
L Device:R R3
U 1 1 5BB093F5
P 4450 4050
F 0 "R3" H 4520 4096 50  0000 L CNN
F 1 "1k" H 4520 4005 50  0000 L CNN
F 2 "Resistor_SMD:R_1206_3216Metric" V 4380 4050 50  0001 C CNN
F 3 "~" H 4450 4050 50  0001 C CNN
	1    4450 4050
	0    -1   -1   0   
$EndComp
Wire Wire Line
	3850 4050 4300 4050
Connection ~ 3850 4050
Wire Wire Line
	3850 2050 2650 2050
Wire Wire Line
	3850 4050 3850 2050
$Comp
L power:GND #PWR0104
U 1 1 5BB60A1F
P 2975 3975
F 0 "#PWR0104" H 2975 3725 50  0001 C CNN
F 1 "GND" H 2980 3802 50  0000 C CNN
F 2 "" H 2975 3975 50  0001 C CNN
F 3 "" H 2975 3975 50  0001 C CNN
	1    2975 3975
	1    0    0    -1  
$EndComp
$Comp
L Device:C_Small C3
U 1 1 5BB65786
P 1950 9125
F 0 "C3" H 2042 9171 50  0000 L CNN
F 1 "1uF" H 2042 9080 50  0000 L CNN
F 2 "Capacitor_SMD:C_0805_2012Metric" H 1950 9125 50  0001 C CNN
F 3 "~" H 1950 9125 50  0001 C CNN
	1    1950 9125
	1    0    0    -1  
$EndComp
$Comp
L power:GND #PWR0105
U 1 1 5BB6578D
P 1950 9375
F 0 "#PWR0105" H 1950 9125 50  0001 C CNN
F 1 "GND" H 1955 9202 50  0000 C CNN
F 2 "" H 1950 9375 50  0001 C CNN
F 3 "" H 1950 9375 50  0001 C CNN
	1    1950 9375
	1    0    0    -1  
$EndComp
Wire Wire Line
	1950 9225 1950 9375
$Comp
L Device:C_Small C5
U 1 1 5BB698CF
P 2300 9125
F 0 "C5" H 2392 9171 50  0000 L CNN
F 1 "1uF" H 2392 9080 50  0000 L CNN
F 2 "Capacitor_SMD:C_0805_2012Metric" H 2300 9125 50  0001 C CNN
F 3 "~" H 2300 9125 50  0001 C CNN
	1    2300 9125
	1    0    0    -1  
$EndComp
$Comp
L power:GND #PWR0106
U 1 1 5BB698D6
P 2300 9375
F 0 "#PWR0106" H 2300 9125 50  0001 C CNN
F 1 "GND" H 2305 9202 50  0000 C CNN
F 2 "" H 2300 9375 50  0001 C CNN
F 3 "" H 2300 9375 50  0001 C CNN
	1    2300 9375
	1    0    0    -1  
$EndComp
Wire Wire Line
	2300 9225 2300 9375
$Comp
L Device:C_Small C8
U 1 1 5BB6DD2E
P 3125 2225
F 0 "C8" H 3217 2271 50  0000 L CNN
F 1 "0.1uF" H 3217 2180 50  0000 L CNN
F 2 "Capacitor_SMD:C_0805_2012Metric" H 3125 2225 50  0001 C CNN
F 3 "~" H 3125 2225 50  0001 C CNN
	1    3125 2225
	1    0    0    -1  
$EndComp
$Comp
L Device:C_Small C11
U 1 1 5BB6DD3C
P 3625 9125
F 0 "C11" H 3717 9171 50  0000 L CNN
F 1 "100nF" H 3717 9080 50  0000 L CNN
F 2 "Capacitor_SMD:C_0805_2012Metric" H 3625 9125 50  0001 C CNN
F 3 "~" H 3625 9125 50  0001 C CNN
	1    3625 9125
	1    0    0    -1  
$EndComp
$Comp
L power:GND #PWR0108
U 1 1 5BB6DD43
P 3625 9375
F 0 "#PWR0108" H 3625 9125 50  0001 C CNN
F 1 "GND" H 3630 9202 50  0000 C CNN
F 2 "" H 3625 9375 50  0001 C CNN
F 3 "" H 3625 9375 50  0001 C CNN
	1    3625 9375
	1    0    0    -1  
$EndComp
Wire Wire Line
	3625 9225 3625 9375
$Comp
L Device:C_Small C14
U 1 1 5BB72475
P 4075 9125
F 0 "C14" H 4167 9171 50  0000 L CNN
F 1 "100nF" H 4167 9080 50  0000 L CNN
F 2 "Capacitor_SMD:C_0805_2012Metric" H 4075 9125 50  0001 C CNN
F 3 "~" H 4075 9125 50  0001 C CNN
	1    4075 9125
	1    0    0    -1  
$EndComp
$Comp
L power:GND #PWR0109
U 1 1 5BB7247C
P 4075 9375
F 0 "#PWR0109" H 4075 9125 50  0001 C CNN
F 1 "GND" H 4080 9202 50  0000 C CNN
F 2 "" H 4075 9375 50  0001 C CNN
F 3 "" H 4075 9375 50  0001 C CNN
	1    4075 9375
	1    0    0    -1  
$EndComp
Wire Wire Line
	4075 9225 4075 9375
$Comp
L Device:C_Small C16
U 1 1 5BB72483
P 4600 9125
F 0 "C16" H 4692 9171 50  0000 L CNN
F 1 "100nF" H 4692 9080 50  0000 L CNN
F 2 "Capacitor_SMD:C_0805_2012Metric" H 4600 9125 50  0001 C CNN
F 3 "~" H 4600 9125 50  0001 C CNN
	1    4600 9125
	1    0    0    -1  
$EndComp
$Comp
L power:GND #PWR0110
U 1 1 5BB7248A
P 4600 9375
F 0 "#PWR0110" H 4600 9125 50  0001 C CNN
F 1 "GND" H 4605 9202 50  0000 C CNN
F 2 "" H 4600 9375 50  0001 C CNN
F 3 "" H 4600 9375 50  0001 C CNN
	1    4600 9375
	1    0    0    -1  
$EndComp
Wire Wire Line
	4600 9225 4600 9375
$Comp
L Device:C_Small C18
U 1 1 5BB7698E
P 5000 9125
F 0 "C18" H 5092 9171 50  0000 L CNN
F 1 "100nF" H 5092 9080 50  0000 L CNN
F 2 "Capacitor_SMD:C_0805_2012Metric" H 5000 9125 50  0001 C CNN
F 3 "~" H 5000 9125 50  0001 C CNN
	1    5000 9125
	1    0    0    -1  
$EndComp
$Comp
L power:GND #PWR0111
U 1 1 5BB76995
P 5000 9375
F 0 "#PWR0111" H 5000 9125 50  0001 C CNN
F 1 "GND" H 5005 9202 50  0000 C CNN
F 2 "" H 5000 9375 50  0001 C CNN
F 3 "" H 5000 9375 50  0001 C CNN
	1    5000 9375
	1    0    0    -1  
$EndComp
Wire Wire Line
	5000 9225 5000 9375
Wire Wire Line
	1950 9025 2300 9025
Wire Wire Line
	5000 9025 4600 9025
Text HLabel 1950 9025 0    50   Input ~ 0
VCC_ICE40_3V3
$Comp
L Device:C_Small C21
U 1 1 5BBA694C
P 6150 9125
F 0 "C21" H 6242 9171 50  0000 L CNN
F 1 "1uF" H 6242 9080 50  0000 L CNN
F 2 "Capacitor_SMD:C_0805_2012Metric" H 6150 9125 50  0001 C CNN
F 3 "~" H 6150 9125 50  0001 C CNN
	1    6150 9125
	1    0    0    -1  
$EndComp
$Comp
L power:GND #PWR0112
U 1 1 5BBA6953
P 6150 9375
F 0 "#PWR0112" H 6150 9125 50  0001 C CNN
F 1 "GND" H 6155 9202 50  0000 C CNN
F 2 "" H 6150 9375 50  0001 C CNN
F 3 "" H 6150 9375 50  0001 C CNN
	1    6150 9375
	1    0    0    -1  
$EndComp
Wire Wire Line
	6150 9225 6150 9375
$Comp
L Device:C_Small C23
U 1 1 5BBA695A
P 6675 9125
F 0 "C23" H 6767 9171 50  0000 L CNN
F 1 "100nF" H 6767 9080 50  0000 L CNN
F 2 "Capacitor_SMD:C_0805_2012Metric" H 6675 9125 50  0001 C CNN
F 3 "~" H 6675 9125 50  0001 C CNN
	1    6675 9125
	1    0    0    -1  
$EndComp
$Comp
L power:GND #PWR0113
U 1 1 5BBA6961
P 6675 9375
F 0 "#PWR0113" H 6675 9125 50  0001 C CNN
F 1 "GND" H 6680 9202 50  0000 C CNN
F 2 "" H 6675 9375 50  0001 C CNN
F 3 "" H 6675 9375 50  0001 C CNN
	1    6675 9375
	1    0    0    -1  
$EndComp
Wire Wire Line
	6675 9225 6675 9375
$Comp
L Device:C_Small C25
U 1 1 5BBA6968
P 7150 9125
F 0 "C25" H 7242 9171 50  0000 L CNN
F 1 "1uF" H 7242 9080 50  0000 L CNN
F 2 "Capacitor_SMD:C_0805_2012Metric" H 7150 9125 50  0001 C CNN
F 3 "~" H 7150 9125 50  0001 C CNN
	1    7150 9125
	1    0    0    -1  
$EndComp
$Comp
L power:GND #PWR0114
U 1 1 5BBA696F
P 7150 9375
F 0 "#PWR0114" H 7150 9125 50  0001 C CNN
F 1 "GND" H 7155 9202 50  0000 C CNN
F 2 "" H 7150 9375 50  0001 C CNN
F 3 "" H 7150 9375 50  0001 C CNN
	1    7150 9375
	1    0    0    -1  
$EndComp
Wire Wire Line
	7150 9225 7150 9375
$Comp
L Device:C_Small C27
U 1 1 5BBA6976
P 7675 9125
F 0 "C27" H 7767 9171 50  0000 L CNN
F 1 "100nF" H 7767 9080 50  0000 L CNN
F 2 "Capacitor_SMD:C_0805_2012Metric" H 7675 9125 50  0001 C CNN
F 3 "~" H 7675 9125 50  0001 C CNN
	1    7675 9125
	1    0    0    -1  
$EndComp
$Comp
L power:GND #PWR0115
U 1 1 5BBA697D
P 7675 9375
F 0 "#PWR0115" H 7675 9125 50  0001 C CNN
F 1 "GND" H 7680 9202 50  0000 C CNN
F 2 "" H 7675 9375 50  0001 C CNN
F 3 "" H 7675 9375 50  0001 C CNN
	1    7675 9375
	1    0    0    -1  
$EndComp
Wire Wire Line
	7675 9225 7675 9375
$Comp
L Device:C_Small C29
U 1 1 5BBA6984
P 8125 9125
F 0 "C29" H 8217 9171 50  0000 L CNN
F 1 "1uF" H 8217 9080 50  0000 L CNN
F 2 "Capacitor_SMD:C_0805_2012Metric" H 8125 9125 50  0001 C CNN
F 3 "~" H 8125 9125 50  0001 C CNN
	1    8125 9125
	1    0    0    -1  
$EndComp
$Comp
L power:GND #PWR0116
U 1 1 5BBA698B
P 8125 9375
F 0 "#PWR0116" H 8125 9125 50  0001 C CNN
F 1 "GND" H 8130 9202 50  0000 C CNN
F 2 "" H 8125 9375 50  0001 C CNN
F 3 "" H 8125 9375 50  0001 C CNN
	1    8125 9375
	1    0    0    -1  
$EndComp
Wire Wire Line
	8125 9225 8125 9375
$Comp
L Device:C_Small C31
U 1 1 5BBA6992
P 8650 9125
F 0 "C31" H 8742 9171 50  0000 L CNN
F 1 "100nF" H 8742 9080 50  0000 L CNN
F 2 "Capacitor_SMD:C_0805_2012Metric" H 8650 9125 50  0001 C CNN
F 3 "~" H 8650 9125 50  0001 C CNN
	1    8650 9125
	1    0    0    -1  
$EndComp
$Comp
L power:GND #PWR0117
U 1 1 5BBA6999
P 8650 9375
F 0 "#PWR0117" H 8650 9125 50  0001 C CNN
F 1 "GND" H 8655 9202 50  0000 C CNN
F 2 "" H 8650 9375 50  0001 C CNN
F 3 "" H 8650 9375 50  0001 C CNN
	1    8650 9375
	1    0    0    -1  
$EndComp
Wire Wire Line
	8650 9225 8650 9375
$Comp
L Device:C_Small C32
U 1 1 5BBA69A0
P 9200 9125
F 0 "C32" H 9292 9171 50  0000 L CNN
F 1 "1uF" H 9292 9080 50  0000 L CNN
F 2 "Capacitor_SMD:C_0805_2012Metric" H 9200 9125 50  0001 C CNN
F 3 "~" H 9200 9125 50  0001 C CNN
	1    9200 9125
	1    0    0    -1  
$EndComp
$Comp
L power:GND #PWR0118
U 1 1 5BBA69A7
P 9200 9375
F 0 "#PWR0118" H 9200 9125 50  0001 C CNN
F 1 "GND" H 9205 9202 50  0000 C CNN
F 2 "" H 9200 9375 50  0001 C CNN
F 3 "" H 9200 9375 50  0001 C CNN
	1    9200 9375
	1    0    0    -1  
$EndComp
Wire Wire Line
	9200 9225 9200 9375
Wire Wire Line
	6150 9025 6675 9025
Wire Wire Line
	7150 9025 6675 9025
Connection ~ 6675 9025
Wire Wire Line
	7675 9025 7150 9025
Connection ~ 7150 9025
Wire Wire Line
	8125 9025 7675 9025
Connection ~ 7675 9025
Wire Wire Line
	8650 9025 8125 9025
Connection ~ 8125 9025
Wire Wire Line
	9200 9025 8650 9025
Connection ~ 8650 9025
Text HLabel 6150 9025 0    50   Input ~ 0
VCC_ICE40_1V2
$Comp
L Device:C_Small C33
U 1 1 5BBB31D2
P 9700 9125
F 0 "C33" H 9792 9171 50  0000 L CNN
F 1 "100nF" H 9792 9080 50  0000 L CNN
F 2 "Capacitor_SMD:C_0805_2012Metric" H 9700 9125 50  0001 C CNN
F 3 "~" H 9700 9125 50  0001 C CNN
	1    9700 9125
	1    0    0    -1  
$EndComp
$Comp
L power:GND #PWR0119
U 1 1 5BBB31D9
P 9700 9375
F 0 "#PWR0119" H 9700 9125 50  0001 C CNN
F 1 "GND" H 9705 9202 50  0000 C CNN
F 2 "" H 9700 9375 50  0001 C CNN
F 3 "" H 9700 9375 50  0001 C CNN
	1    9700 9375
	1    0    0    -1  
$EndComp
Wire Wire Line
	9700 9225 9700 9375
Wire Wire Line
	9700 9025 9200 9025
Connection ~ 9200 9025
$Comp
L Device:C_Small C4
U 1 1 5BBC55DA
P 1950 9850
F 0 "C4" H 2042 9896 50  0000 L CNN
F 1 "1uF" H 2042 9805 50  0000 L CNN
F 2 "Capacitor_SMD:C_0805_2012Metric" H 1950 9850 50  0001 C CNN
F 3 "~" H 1950 9850 50  0001 C CNN
	1    1950 9850
	1    0    0    -1  
$EndComp
$Comp
L power:GND #PWR0120
U 1 1 5BBC55E1
P 1950 10100
F 0 "#PWR0120" H 1950 9850 50  0001 C CNN
F 1 "GND" H 1955 9927 50  0000 C CNN
F 2 "" H 1950 10100 50  0001 C CNN
F 3 "" H 1950 10100 50  0001 C CNN
	1    1950 10100
	1    0    0    -1  
$EndComp
Wire Wire Line
	1950 9950 1950 10100
$Comp
L Device:C_Small C6
U 1 1 5BBC55E8
P 2475 9850
F 0 "C6" H 2567 9896 50  0000 L CNN
F 1 "100nF" H 2567 9805 50  0000 L CNN
F 2 "Capacitor_SMD:C_0805_2012Metric" H 2475 9850 50  0001 C CNN
F 3 "~" H 2475 9850 50  0001 C CNN
	1    2475 9850
	1    0    0    -1  
$EndComp
$Comp
L power:GND #PWR0121
U 1 1 5BBC55EF
P 2475 10100
F 0 "#PWR0121" H 2475 9850 50  0001 C CNN
F 1 "GND" H 2480 9927 50  0000 C CNN
F 2 "" H 2475 10100 50  0001 C CNN
F 3 "" H 2475 10100 50  0001 C CNN
	1    2475 10100
	1    0    0    -1  
$EndComp
Wire Wire Line
	2475 9950 2475 10100
$Comp
L Device:C_Small C9
U 1 1 5BBC55F6
P 2950 9850
F 0 "C9" H 3042 9896 50  0000 L CNN
F 1 "1uF" H 3042 9805 50  0000 L CNN
F 2 "Capacitor_SMD:C_0805_2012Metric" H 2950 9850 50  0001 C CNN
F 3 "~" H 2950 9850 50  0001 C CNN
	1    2950 9850
	1    0    0    -1  
$EndComp
$Comp
L power:GND #PWR0122
U 1 1 5BBC55FD
P 2950 10100
F 0 "#PWR0122" H 2950 9850 50  0001 C CNN
F 1 "GND" H 2955 9927 50  0000 C CNN
F 2 "" H 2950 10100 50  0001 C CNN
F 3 "" H 2950 10100 50  0001 C CNN
	1    2950 10100
	1    0    0    -1  
$EndComp
Wire Wire Line
	2950 9950 2950 10100
$Comp
L Device:C_Small C12
U 1 1 5BBC5604
P 3475 9850
F 0 "C12" H 3567 9896 50  0000 L CNN
F 1 "100nF" H 3567 9805 50  0000 L CNN
F 2 "Capacitor_SMD:C_0805_2012Metric" H 3475 9850 50  0001 C CNN
F 3 "~" H 3475 9850 50  0001 C CNN
	1    3475 9850
	1    0    0    -1  
$EndComp
$Comp
L power:GND #PWR0123
U 1 1 5BBC560B
P 3475 10100
F 0 "#PWR0123" H 3475 9850 50  0001 C CNN
F 1 "GND" H 3480 9927 50  0000 C CNN
F 2 "" H 3475 10100 50  0001 C CNN
F 3 "" H 3475 10100 50  0001 C CNN
	1    3475 10100
	1    0    0    -1  
$EndComp
Wire Wire Line
	3475 9950 3475 10100
Wire Wire Line
	1950 9750 2475 9750
Wire Wire Line
	2950 9750 2475 9750
Connection ~ 2475 9750
Wire Wire Line
	3475 9750 2950 9750
Connection ~ 2950 9750
Text HLabel 1950 9750 0    50   Input ~ 0
VCC_ICE40_3V3
$Comp
L Device:C_Small C15
U 1 1 5BBD2583
P 4400 9850
F 0 "C15" H 4492 9896 50  0000 L CNN
F 1 "1uF" H 4492 9805 50  0000 L CNN
F 2 "Capacitor_SMD:C_0805_2012Metric" H 4400 9850 50  0001 C CNN
F 3 "~" H 4400 9850 50  0001 C CNN
	1    4400 9850
	1    0    0    -1  
$EndComp
$Comp
L power:GND #PWR0124
U 1 1 5BBD258A
P 4400 10100
F 0 "#PWR0124" H 4400 9850 50  0001 C CNN
F 1 "GND" H 4405 9927 50  0000 C CNN
F 2 "" H 4400 10100 50  0001 C CNN
F 3 "" H 4400 10100 50  0001 C CNN
	1    4400 10100
	1    0    0    -1  
$EndComp
Wire Wire Line
	4400 9950 4400 10100
$Comp
L Device:C_Small C17
U 1 1 5BBD2591
P 4925 9850
F 0 "C17" H 5017 9896 50  0000 L CNN
F 1 "100nF" H 5017 9805 50  0000 L CNN
F 2 "Capacitor_SMD:C_0805_2012Metric" H 4925 9850 50  0001 C CNN
F 3 "~" H 4925 9850 50  0001 C CNN
	1    4925 9850
	1    0    0    -1  
$EndComp
$Comp
L power:GND #PWR0125
U 1 1 5BBD2598
P 4925 10100
F 0 "#PWR0125" H 4925 9850 50  0001 C CNN
F 1 "GND" H 4930 9927 50  0000 C CNN
F 2 "" H 4925 10100 50  0001 C CNN
F 3 "" H 4925 10100 50  0001 C CNN
	1    4925 10100
	1    0    0    -1  
$EndComp
Wire Wire Line
	4925 9950 4925 10100
$Comp
L Device:C_Small C19
U 1 1 5BBD259F
P 5400 9850
F 0 "C19" H 5492 9896 50  0000 L CNN
F 1 "1uF" H 5492 9805 50  0000 L CNN
F 2 "Capacitor_SMD:C_0805_2012Metric" H 5400 9850 50  0001 C CNN
F 3 "~" H 5400 9850 50  0001 C CNN
	1    5400 9850
	1    0    0    -1  
$EndComp
$Comp
L power:GND #PWR0126
U 1 1 5BBD25A6
P 5400 10100
F 0 "#PWR0126" H 5400 9850 50  0001 C CNN
F 1 "GND" H 5405 9927 50  0000 C CNN
F 2 "" H 5400 10100 50  0001 C CNN
F 3 "" H 5400 10100 50  0001 C CNN
	1    5400 10100
	1    0    0    -1  
$EndComp
Wire Wire Line
	5400 9950 5400 10100
$Comp
L Device:C_Small C20
U 1 1 5BBD25AD
P 5925 9850
F 0 "C20" H 6017 9896 50  0000 L CNN
F 1 "100nF" H 6017 9805 50  0000 L CNN
F 2 "Capacitor_SMD:C_0805_2012Metric" H 5925 9850 50  0001 C CNN
F 3 "~" H 5925 9850 50  0001 C CNN
	1    5925 9850
	1    0    0    -1  
$EndComp
$Comp
L power:GND #PWR0127
U 1 1 5BBD25B4
P 5925 10100
F 0 "#PWR0127" H 5925 9850 50  0001 C CNN
F 1 "GND" H 5930 9927 50  0000 C CNN
F 2 "" H 5925 10100 50  0001 C CNN
F 3 "" H 5925 10100 50  0001 C CNN
	1    5925 10100
	1    0    0    -1  
$EndComp
Wire Wire Line
	5925 9950 5925 10100
Wire Wire Line
	4400 9750 4925 9750
Wire Wire Line
	5400 9750 4925 9750
Connection ~ 4925 9750
Wire Wire Line
	5925 9750 5400 9750
Connection ~ 5400 9750
Text HLabel 4400 9750 0    50   Input ~ 0
VCC_ICE40_3V3
$Comp
L Device:C_Small C24
U 1 1 5BBD9514
P 6925 9850
F 0 "C24" H 7017 9896 50  0000 L CNN
F 1 "1uF" H 7017 9805 50  0000 L CNN
F 2 "Capacitor_SMD:C_0805_2012Metric" H 6925 9850 50  0001 C CNN
F 3 "~" H 6925 9850 50  0001 C CNN
	1    6925 9850
	1    0    0    -1  
$EndComp
$Comp
L power:GND #PWR0128
U 1 1 5BBD951B
P 6925 10100
F 0 "#PWR0128" H 6925 9850 50  0001 C CNN
F 1 "GND" H 6930 9927 50  0000 C CNN
F 2 "" H 6925 10100 50  0001 C CNN
F 3 "" H 6925 10100 50  0001 C CNN
	1    6925 10100
	1    0    0    -1  
$EndComp
Wire Wire Line
	6925 9950 6925 10100
$Comp
L Device:C_Small C26
U 1 1 5BBD9522
P 7450 9850
F 0 "C26" H 7542 9896 50  0000 L CNN
F 1 "100nF" H 7542 9805 50  0000 L CNN
F 2 "Capacitor_SMD:C_0805_2012Metric" H 7450 9850 50  0001 C CNN
F 3 "~" H 7450 9850 50  0001 C CNN
	1    7450 9850
	1    0    0    -1  
$EndComp
$Comp
L power:GND #PWR0129
U 1 1 5BBD9529
P 7450 10100
F 0 "#PWR0129" H 7450 9850 50  0001 C CNN
F 1 "GND" H 7455 9927 50  0000 C CNN
F 2 "" H 7450 10100 50  0001 C CNN
F 3 "" H 7450 10100 50  0001 C CNN
	1    7450 10100
	1    0    0    -1  
$EndComp
Wire Wire Line
	7450 9950 7450 10100
$Comp
L Device:C_Small C28
U 1 1 5BBD9530
P 7925 9850
F 0 "C28" H 8017 9896 50  0000 L CNN
F 1 "1uF" H 8017 9805 50  0000 L CNN
F 2 "Capacitor_SMD:C_0805_2012Metric" H 7925 9850 50  0001 C CNN
F 3 "~" H 7925 9850 50  0001 C CNN
	1    7925 9850
	1    0    0    -1  
$EndComp
$Comp
L power:GND #PWR0130
U 1 1 5BBD9537
P 7925 10100
F 0 "#PWR0130" H 7925 9850 50  0001 C CNN
F 1 "GND" H 7930 9927 50  0000 C CNN
F 2 "" H 7925 10100 50  0001 C CNN
F 3 "" H 7925 10100 50  0001 C CNN
	1    7925 10100
	1    0    0    -1  
$EndComp
Wire Wire Line
	7925 9950 7925 10100
$Comp
L Device:C_Small C30
U 1 1 5BBD953E
P 8450 9850
F 0 "C30" H 8542 9896 50  0000 L CNN
F 1 "100nF" H 8542 9805 50  0000 L CNN
F 2 "Capacitor_SMD:C_0805_2012Metric" H 8450 9850 50  0001 C CNN
F 3 "~" H 8450 9850 50  0001 C CNN
	1    8450 9850
	1    0    0    -1  
$EndComp
$Comp
L power:GND #PWR0131
U 1 1 5BBD9545
P 8450 10100
F 0 "#PWR0131" H 8450 9850 50  0001 C CNN
F 1 "GND" H 8455 9927 50  0000 C CNN
F 2 "" H 8450 10100 50  0001 C CNN
F 3 "" H 8450 10100 50  0001 C CNN
	1    8450 10100
	1    0    0    -1  
$EndComp
Wire Wire Line
	8450 9950 8450 10100
Wire Wire Line
	6925 9750 7450 9750
Wire Wire Line
	7925 9750 7450 9750
Connection ~ 7450 9750
Wire Wire Line
	8450 9750 7925 9750
Connection ~ 7925 9750
Text HLabel 6925 9750 0    50   Input ~ 0
VCC_ICE40_3V3
Wire Wire Line
	2625 4275 2625 4225
Wire Wire Line
	2625 4275 3275 4275
Wire Wire Line
	2625 4375 2625 4325
Wire Wire Line
	2625 4375 2850 4375
$Comp
L Device:C_Small C13
U 1 1 5BC12210
P 3850 4150
F 0 "C13" H 3942 4196 50  0000 L CNN
F 1 "0.1uF" H 3942 4105 50  0000 L CNN
F 2 "Capacitor_SMD:C_0805_2012Metric" H 3850 4150 50  0001 C CNN
F 3 "~" H 3850 4150 50  0001 C CNN
	1    3850 4150
	1    0    0    -1  
$EndComp
Wire Wire Line
	3850 4250 3850 4275
Wire Wire Line
	3850 4275 3275 4275
Connection ~ 3275 4275
Wire Wire Line
	2625 3325 2625 3425
Wire Wire Line
	2625 3525 2625 3425
Connection ~ 2625 3425
Wire Wire Line
	2625 3625 2625 3525
Connection ~ 2625 3525
Wire Wire Line
	2625 3725 2625 3625
Connection ~ 2625 3625
Wire Wire Line
	2625 3825 2625 3725
Connection ~ 2625 3725
Wire Wire Line
	2625 3925 2625 3825
Connection ~ 2625 3825
Wire Wire Line
	2625 4025 2625 3975
Connection ~ 2625 3925
Wire Wire Line
	2625 4125 2625 4025
Connection ~ 2625 4025
Wire Wire Line
	2975 3975 2625 3975
Connection ~ 2625 3975
Wire Wire Line
	2625 3975 2625 3925
Text HLabel 13025 4875 2    50   Input ~ 0
ICE40_NBL_0
Text HLabel 13025 4975 2    50   Input ~ 0
ICE40_NBL_1
$Comp
L pkl_lattice:ICE40HX4K-TQ144_u U1
U 3 1 5B9EB2F3
P 7900 7025
F 0 "U1" H 7950 8375 60  0000 C CNN
F 1 "ICE40HX4K-TQ144_u" H 7975 8225 60  0000 C CNN
F 2 "ICE40_ONION_MCU:TQFP-144_20x20mm_Pitch0.5mm" H 7900 7025 60  0001 C CNN
F 3 "" H 7900 7025 60  0001 C CNN
	3    7900 7025
	1    0    0    -1  
$EndComp
Entry Wire Line
	9175 3800 9075 3700
Entry Wire Line
	9175 3900 9075 3800
Entry Wire Line
	9175 4000 9075 3900
Entry Wire Line
	9175 4100 9075 4000
Wire Wire Line
	8450 4000 9075 4000
Entry Wire Line
	9175 2400 9075 2300
Entry Wire Line
	9175 2300 9075 2200
Wire Wire Line
	8450 2300 9075 2300
Wire Wire Line
	8450 2200 9075 2200
Text HLabel 9175 2300 2    50   Input ~ 0
FCM_DA[0..15]
Entry Wire Line
	9175 3100 9075 3000
Entry Wire Line
	9175 2600 9075 2500
Text HLabel 13750 4575 2    50   Input ~ 0
FCM_A[24..16]
Entry Wire Line
	13750 4775 13650 4675
Text HLabel 9175 3000 2    50   Input ~ 0
FCM_A[24..16]
Text HLabel 11975 8400 2    50   Input ~ 0
ICE40_FCM_CLK
Text Label 13025 2375 0    50   ~ 0
ICE40_IOR_165
Text Label 13025 2475 0    50   ~ 0
ICE40_IOR_164
Text Label 13025 2575 0    50   ~ 0
ICE40_IOR_161
Text Label 13025 2675 0    50   ~ 0
ICE40_IOR_160
Text Label 13025 2775 0    50   ~ 0
ICE40_IOR_152
Text Label 13025 2875 0    50   ~ 0
ICE40_IOR_148
Text Label 13025 2975 0    50   ~ 0
ICE40_IOR_147
Text Label 13025 3075 0    50   ~ 0
ICE40_IOR_146
Text Label 13025 3175 0    50   ~ 0
ICE40_IOR_144
Text Label 13025 3475 0    50   ~ 0
ICE40_IOR_139
Text Label 13025 3575 0    50   ~ 0
ICE40_IOR_138
Text Label 13025 3675 0    50   ~ 0
ICE40_IOR_137
Text Label 13025 3775 0    50   ~ 0
ICE40_IOR_136
Text Label 13025 3875 0    50   ~ 0
ICE40_IOR_128
Text Label 13025 3975 0    50   ~ 0
ICE40_IOR_120
Text Label 13025 4075 0    50   ~ 0
ICE40_IOR_119
Text Label 13025 4175 0    50   ~ 0
ICE40_IOR_118
Text Label 8500 7425 0    50   ~ 0
ICE40_IOB_GBIN4
$Comp
L Connector_Generic:Conn_02x03_Counter_Clockwise J4
U 1 1 5C54D3D5
P 10850 5425
F 0 "J4" H 10900 5742 50  0000 C CNN
F 1 "Conn_02x03_GBIN" H 10900 5651 50  0000 C CNN
F 2 "ICE40_ONION_MCU:PinSocket_2x03_P2.54mm_Vertical_modify" H 10850 5425 50  0001 C CNN
F 3 "~" H 10850 5425 50  0001 C CNN
	1    10850 5425
	1    0    0    -1  
$EndComp
Text Label 10650 5325 2    50   ~ 0
ICE40_IOR_GBIN0
Text Label 10650 5525 2    50   ~ 0
ICE40_IOR_GBIN3
Text Label 11150 5525 0    50   ~ 0
ICE40_IOB_GBIN4
Text Label 11150 5425 0    50   ~ 0
ICE40_IOL_GBIN6
Text Label 11150 5325 0    50   ~ 0
ICE40_IOL_GBIN7
$Comp
L Connector_Generic:Conn_02x01 J5
U 1 1 5C5A314C
P 12775 5525
F 0 "J5" H 12825 5742 50  0000 C CNN
F 1 "Conn_02x01_CBSEL" H 12825 5651 50  0000 C CNN
F 2 "ICE40_ONION_MCU:PinSocket_2x01_P2.54mm_Vertical_modify" H 12775 5525 50  0001 C CNN
F 3 "~" H 12775 5525 50  0001 C CNN
	1    12775 5525
	1    0    0    -1  
$EndComp
Text Label 12575 5525 2    50   ~ 0
ICE40_CBSEL0
Text Label 13075 5525 0    50   ~ 0
ICE40_CBSEL1
$Comp
L Device:LED D5
U 1 1 5BB568AB
P 2825 8275
AR Path="/5B9EA780/5BB568AB" Ref="D5"  Part="1" 
AR Path="/5C5D920E/5BB568AB" Ref="D?"  Part="1" 
F 0 "D5" H 2800 8475 50  0000 L CNN
F 1 "LED" H 2750 8400 50  0000 L CNN
F 2 "LED_SMD:LED_0603_1608Metric" H 2825 8275 50  0001 C CNN
F 3 "~" H 2825 8275 50  0001 C CNN
	1    2825 8275
	-1   0    0    1   
$EndComp
Wire Wire Line
	3525 8275 3925 8275
$Comp
L Device:R R23
U 1 1 5BB568B3
P 3375 8275
AR Path="/5B9EA780/5BB568B3" Ref="R23"  Part="1" 
AR Path="/5BB568B3" Ref="R?"  Part="1" 
AR Path="/5C5D920E/5BB568B3" Ref="R?"  Part="1" 
F 0 "R23" V 3525 8275 50  0000 L CNN
F 1 "1K" V 3450 8275 50  0000 L CNN
F 2 "Resistor_SMD:R_1206_3216Metric" V 3305 8275 50  0001 C CNN
F 3 "~" H 3375 8275 50  0001 C CNN
	1    3375 8275
	0    -1   -1   0   
$EndComp
Wire Wire Line
	2975 8275 3225 8275
$Comp
L power:GND #PWR0178
U 1 1 5BB568BC
P 3925 8275
AR Path="/5B9EA780/5BB568BC" Ref="#PWR0178"  Part="1" 
AR Path="/5BBE9BF1/5BB568BC" Ref="#PWR?"  Part="1" 
AR Path="/5C5D920E/5BB568BC" Ref="#PWR?"  Part="1" 
F 0 "#PWR0178" H 3925 8025 50  0001 C CNN
F 1 "GND" H 3930 8102 50  0000 C CNN
F 2 "" H 3925 8275 50  0001 C CNN
F 3 "" H 3925 8275 50  0001 C CNN
	1    3925 8275
	1    0    0    -1  
$EndComp
Text HLabel 2675 8275 0    50   Input ~ 0
VCC_ICE40_3V3
$Comp
L elementos_creados:ASFLMB U8
U 1 1 5BD459C8
P 5825 2225
F 0 "U8" H 5825 2590 50  0000 C CNN
F 1 "ASFLMB" H 5825 2499 50  0000 C CNN
F 2 "Oscillator:Oscillator_SMD_EuroQuartz_XO53-4Pin_5.0x3.2mm_HandSoldering" H 5825 2225 50  0001 C CNN
F 3 "" H 5825 2225 50  0001 C CNN
	1    5825 2225
	1    0    0    -1  
$EndComp
Text Label 6375 2275 0    50   ~ 0
ICE40_CLK_25MHZ
$Comp
L power:GND #PWR0180
U 1 1 5BD6A1D6
P 5275 2675
F 0 "#PWR0180" H 5275 2425 50  0001 C CNN
F 1 "GND" H 5280 2502 50  0000 C CNN
F 2 "" H 5275 2675 50  0001 C CNN
F 3 "" H 5275 2675 50  0001 C CNN
	1    5275 2675
	1    0    0    -1  
$EndComp
$Comp
L Device:R R24
U 1 1 5BD7A8E2
P 5275 1800
F 0 "R24" H 5345 1846 50  0000 L CNN
F 1 "10k" H 5345 1755 50  0000 L CNN
F 2 "Resistor_SMD:R_1206_3216Metric" V 5205 1800 50  0001 C CNN
F 3 "~" H 5275 1800 50  0001 C CNN
	1    5275 1800
	-1   0    0    1   
$EndComp
Wire Wire Line
	5275 2125 5275 1950
Text HLabel 6450 2125 2    50   Input ~ 0
VCC_ICE40_3V3
$Comp
L Device:C_Small C78
U 1 1 5BDF3402
P 6450 2525
F 0 "C78" H 6542 2571 50  0000 L CNN
F 1 "0.01uF" H 6542 2480 50  0000 L CNN
F 2 "Capacitor_SMD:C_0805_2012Metric" H 6450 2525 50  0001 C CNN
F 3 "~" H 6450 2525 50  0001 C CNN
	1    6450 2525
	1    0    0    -1  
$EndComp
Wire Wire Line
	6375 2125 6450 2125
Wire Wire Line
	6450 2125 6450 2425
Wire Wire Line
	6450 2625 5275 2625
Wire Wire Line
	5275 2625 5275 2275
Wire Wire Line
	5275 2675 5275 2625
Connection ~ 5275 2625
$Comp
L Device:LED D6
U 1 1 5BD8BECB
P 13000 7825
F 0 "D6" V 12945 7903 50  0000 L CNN
F 1 "LED" V 13036 7903 50  0000 L CNN
F 2 "LED_SMD:LED_0603_1608Metric" H 13000 7825 50  0001 C CNN
F 3 "~" H 13000 7825 50  0001 C CNN
	1    13000 7825
	0    -1   -1   0   
$EndComp
$Comp
L Device:R R25
U 1 1 5BD94F6D
P 12700 8100
F 0 "R25" V 12770 8146 50  0000 L CNN
F 1 "1k" V 12775 8000 50  0000 L CNN
F 2 "Resistor_SMD:R_1206_3216Metric" V 12630 8100 50  0001 C CNN
F 3 "~" H 12700 8100 50  0001 C CNN
	1    12700 8100
	0    -1   -1   0   
$EndComp
Wire Wire Line
	11975 8100 12550 8100
Wire Wire Line
	12850 8100 13000 8100
Wire Wire Line
	13000 8100 13000 7975
$Comp
L power:GND #PWR0107
U 1 1 5BDECCE7
P 13400 7650
F 0 "#PWR0107" H 13400 7400 50  0001 C CNN
F 1 "GND" H 13405 7477 50  0000 C CNN
F 2 "" H 13400 7650 50  0001 C CNN
F 3 "" H 13400 7650 50  0001 C CNN
	1    13400 7650
	1    0    0    -1  
$EndComp
Wire Wire Line
	13400 7650 13000 7650
Wire Wire Line
	13000 7650 13000 7675
Wire Wire Line
	3125 2125 3125 1950
Connection ~ 3125 1950
Wire Wire Line
	3125 1950 2650 1950
$Comp
L power:GND #PWR0158
U 1 1 5BE26BF7
P 3125 2325
F 0 "#PWR0158" H 3125 2075 50  0001 C CNN
F 1 "GND" H 3130 2152 50  0000 C CNN
F 2 "" H 3125 2325 50  0001 C CNN
F 3 "" H 3125 2325 50  0001 C CNN
	1    3125 2325
	1    0    0    -1  
$EndComp
$Comp
L Device:C_Small C80
U 1 1 5BE43205
P 2675 9125
F 0 "C80" H 2767 9171 50  0000 L CNN
F 1 "1uF" H 2767 9080 50  0000 L CNN
F 2 "Capacitor_SMD:C_0805_2012Metric" H 2675 9125 50  0001 C CNN
F 3 "~" H 2675 9125 50  0001 C CNN
	1    2675 9125
	1    0    0    -1  
$EndComp
Wire Wire Line
	2675 9225 2675 9375
$Comp
L power:GND #PWR0181
U 1 1 5BE5ECDA
P 2675 9375
F 0 "#PWR0181" H 2675 9125 50  0001 C CNN
F 1 "GND" H 2680 9202 50  0000 C CNN
F 2 "" H 2675 9375 50  0001 C CNN
F 3 "" H 2675 9375 50  0001 C CNN
	1    2675 9375
	1    0    0    -1  
$EndComp
Text HLabel 8600 1900 2    50   Input ~ 0
VCC_ICE40_3V3
Connection ~ 2300 9025
Wire Wire Line
	2300 9025 2675 9025
Connection ~ 2675 9025
Connection ~ 3625 9025
Connection ~ 4075 9025
Connection ~ 4600 9025
Wire Wire Line
	4075 9025 4600 9025
Wire Wire Line
	3625 9025 4075 9025
Wire Wire Line
	2675 9025 3625 9025
Text Label 13025 3275 0    50   ~ 0
ICE40_CLK_25MHZ
Text Label 10650 5425 2    50   ~ 0
ICE40_IOB_GBIN5
Text Label 8450 4800 0    50   ~ 0
FCM_A23
Entry Wire Line
	9175 4900 9075 4800
Wire Wire Line
	8450 4800 9075 4800
Text Label 8450 4600 0    50   ~ 0
FCM_A20
Entry Wire Line
	9175 4700 9075 4600
Wire Wire Line
	8450 4600 9075 4600
Text HLabel 9175 4950 2    50   Input ~ 0
FCM_A[24..16]
Text Label 8450 4300 0    50   ~ 0
FCM_DA4
Text Label 8450 4200 0    50   ~ 0
FCM_DA5
Text Label 8450 4100 0    50   ~ 0
FCM_DA6
Text HLabel 9175 4400 2    50   Input ~ 0
FCM_DA[0..15]
Entry Wire Line
	9175 4200 9075 4100
Wire Wire Line
	8450 4100 9075 4100
Entry Wire Line
	9175 4300 9075 4200
Wire Wire Line
	8450 4200 9075 4200
Entry Wire Line
	9175 4400 9075 4300
Wire Wire Line
	8450 4300 9075 4300
Entry Wire Line
	9175 4500 9075 4400
Wire Wire Line
	8450 3800 9075 3800
Wire Wire Line
	9075 3700 8450 3700
Wire Wire Line
	8450 3900 9075 3900
Text HLabel 9175 3300 2    50   Input ~ 0
FCM_DA[0..15]
Entry Wire Line
	9175 2800 9075 2700
Wire Wire Line
	8450 2700 9075 2700
Wire Wire Line
	8450 2800 9075 2800
Entry Wire Line
	9175 2900 9075 2800
Wire Bus Line
	13750 4575 13750 4775
Entry Wire Line
	9175 2700 9075 2600
Text Label 8500 6725 0    50   ~ 0
ICE40_IOB_64
Text Label 8500 6625 0    50   ~ 0
ICE40_IOB_62
Text Label 8500 6525 0    50   ~ 0
ICE40_IOB_61
Text Label 8500 6425 0    50   ~ 0
ICE40_IOB_57
Text Label 8500 6325 0    50   ~ 0
ICE40_IOB_56
Text Label 8500 7225 0    50   ~ 0
ICE40_IOB_80
Text Label 8500 7125 0    50   ~ 0
ICE40_IOB_79
Text Label 8500 7025 0    50   ~ 0
ICE40_IOB_73
Text Label 8500 6925 0    50   ~ 0
ICE40_IOB_72
Text Label 8500 6825 0    50   ~ 0
ICE40_IOB_71
Text Label 9725 6825 2    50   ~ 0
ICE40_IOB_61
Text Label 9725 6725 2    50   ~ 0
ICE40_IOB_57
Text Label 10225 6725 0    50   ~ 0
ICE40_IOB_56
Text Label 10225 6925 0    50   ~ 0
ICE40_IOB_GBIN5
Text Label 9725 6925 2    50   ~ 0
ICE40_CBSEL0
Text HLabel 10225 6825 2    50   Input ~ 0
VCC_ICE40_3V3
$Comp
L Connector_Generic:Conn_02x03_Counter_Clockwise J1
U 1 1 5BDD0263
P 9925 6825
F 0 "J1" H 9975 7142 50  0000 C CNN
F 1 "Conn_02x03_GBIN" H 9975 7051 50  0000 C CNN
F 2 "ICE40_ONION_MCU:PinSocket_2x03_P2.54mm_Vertical_modify" H 9925 6825 50  0001 C CNN
F 3 "~" H 9925 6825 50  0001 C CNN
	1    9925 6825
	1    0    0    -1  
$EndComp
Wire Wire Line
	2550 6775 3100 6775
Wire Wire Line
	2550 6875 3100 6875
Wire Bus Line
	9175 2800 9175 3000
Wire Bus Line
	9175 3100 9175 3325
Wire Bus Line
	9175 2300 9175 2725
Wire Bus Line
	9175 4500 9175 4950
Wire Bus Line
	9175 3600 9175 4400
$EndSCHEMATC
