EESchema Schematic File Version 4
LIBS:ICE40_ONION_MCU-cache
EELAYER 26 0
EELAYER END
$Descr A4 11693 8268
encoding utf-8
Sheet 5 5
Title ""
Date ""
Rev ""
Comp ""
Comment1 ""
Comment2 ""
Comment3 ""
Comment4 ""
$EndDescr
$Comp
L elementos_creados:OMEGA2S U4
U 1 1 5BA54A7B
P 6425 3800
F 0 "U4" H 6425 5467 50  0000 C CNN
F 1 "OMEGA2S" H 6425 5376 50  0000 C CNN
F 2 "OMEGA2S:XCVR_OMEGA2S" H 6425 3800 50  0001 L BNN
F 3 "None" H 6425 3800 50  0001 L BNN
F 4 "OMEGA2S" H 6425 3800 50  0001 L BNN "Field4"
F 5 "Unavailable" H 6425 3800 50  0001 L BNN "Field5"
F 6 "None" H 6425 3800 50  0001 L BNN "Field6"
F 7 "Onion" H 6425 3800 50  0001 L BNN "Field7"
F 8 "" H 6425 3800 50  0001 L BNN "Field8"
	1    6425 3800
	1    0    0    -1  
$EndComp
Text HLabel 6725 5500 3    50   Input ~ 0
ONION_SPI_MISO
Text HLabel 6825 5500 3    50   Input ~ 0
ONION_SPI_MOSI
Text HLabel 6525 5500 3    50   Input ~ 0
ONION_SPI_CS
Text HLabel 6625 5500 3    50   Input ~ 0
ONION_SPI_CLK
Text HLabel 7025 5500 3    50   Input ~ 0
ONION_CRESET_B
Text HLabel 6925 5500 3    50   Input ~ 0
ONION_CDONE
Text HLabel 5425 3100 0    50   Input ~ 0
ONION_3V3
Text HLabel 5425 3200 0    50   Input ~ 0
ONION_3V3
$Comp
L power:GND #PWR0150
U 1 1 5BA646A2
P 7700 2400
F 0 "#PWR0150" H 7700 2150 50  0001 C CNN
F 1 "GND" H 7705 2227 50  0000 C CNN
F 2 "" H 7700 2400 50  0001 C CNN
F 3 "" H 7700 2400 50  0001 C CNN
	1    7700 2400
	0    -1   -1   0   
$EndComp
Wire Wire Line
	7425 2400 7700 2400
$Comp
L power:GND #PWR0151
U 1 1 5BA646D8
P 5125 2400
F 0 "#PWR0151" H 5125 2150 50  0001 C CNN
F 1 "GND" H 5130 2227 50  0000 C CNN
F 2 "" H 5125 2400 50  0001 C CNN
F 3 "" H 5125 2400 50  0001 C CNN
	1    5125 2400
	0    1    -1   0   
$EndComp
Wire Wire Line
	5125 2400 5425 2400
$Comp
L Device:R R?
U 1 1 5BA64E2E
P 6425 5650
AR Path="/5B9EA780/5BA64E2E" Ref="R?"  Part="1" 
AR Path="/5BA64E2E" Ref="R?"  Part="1" 
AR Path="/5C5D920E/5BA64E2E" Ref="R10"  Part="1" 
F 0 "R10" V 6500 5675 50  0000 L CNN
F 1 "1k" V 6500 5575 50  0000 L CNN
F 2 "Resistor_SMD:R_1206_3216Metric" V 6355 5650 50  0001 C CNN
F 3 "~" H 6425 5650 50  0001 C CNN
	1    6425 5650
	-1   0    0    1   
$EndComp
Text HLabel 6425 5800 3    50   Input ~ 0
ONION_3V3
$Comp
L power:GND #PWR0152
U 1 1 5BA652F1
P 5425 4950
F 0 "#PWR0152" H 5425 4700 50  0001 C CNN
F 1 "GND" H 5430 4777 50  0000 C CNN
F 2 "" H 5425 4950 50  0001 C CNN
F 3 "" H 5425 4950 50  0001 C CNN
	1    5425 4950
	1    0    0    -1  
$EndComp
Wire Wire Line
	5425 4950 5425 4800
Wire Wire Line
	5425 4800 5375 4800
Wire Wire Line
	5375 4800 5375 4600
Wire Wire Line
	5375 4600 5425 4600
Connection ~ 5425 4800
Wire Wire Line
	5425 4500 5375 4500
Wire Wire Line
	5375 4500 5375 4600
Connection ~ 5375 4600
Text HLabel 7425 4200 2    50   Input ~ 0
ONION_JTAG_TRS
Text HLabel 7425 4100 2    50   Input ~ 0
ONION_JTAG_TDO
Text HLabel 7425 4000 2    50   Input ~ 0
ONION_JTAG_TDI
Text HLabel 7425 3800 2    50   Input ~ 0
ONION_JTAG_TMS
Text HLabel 7425 3900 2    50   Input ~ 0
ONION_JTAG_TCK
Text HLabel 7425 3700 2    50   Input ~ 0
ONION_BOOT1MCU
$Comp
L Device:C_Small C?
U 1 1 5BB2E59B
P 3250 5700
AR Path="/5B9EA780/5BB2E59B" Ref="C?"  Part="1" 
AR Path="/5BBE9BF1/5BB2E59B" Ref="C?"  Part="1" 
AR Path="/5C5D920E/5BB2E59B" Ref="C53"  Part="1" 
F 0 "C53" H 3342 5746 50  0000 L CNN
F 1 "1uF" H 3342 5655 50  0000 L CNN
F 2 "Capacitor_SMD:C_0805_2012Metric" H 3250 5700 50  0001 C CNN
F 3 "~" H 3250 5700 50  0001 C CNN
	1    3250 5700
	1    0    0    -1  
$EndComp
$Comp
L power:GND #PWR?
U 1 1 5BB2E5A2
P 3250 5950
AR Path="/5B9EA780/5BB2E5A2" Ref="#PWR?"  Part="1" 
AR Path="/5BBE9BF1/5BB2E5A2" Ref="#PWR?"  Part="1" 
AR Path="/5C5D920E/5BB2E5A2" Ref="#PWR0154"  Part="1" 
F 0 "#PWR0154" H 3250 5700 50  0001 C CNN
F 1 "GND" H 3255 5777 50  0000 C CNN
F 2 "" H 3250 5950 50  0001 C CNN
F 3 "" H 3250 5950 50  0001 C CNN
	1    3250 5950
	1    0    0    -1  
$EndComp
Wire Wire Line
	3250 5800 3250 5950
Wire Wire Line
	2725 5600 3250 5600
Wire Wire Line
	3250 5600 3725 5600
Connection ~ 3250 5600
$Comp
L Device:C_Small C?
U 1 1 5BB2E686
P 2725 5700
AR Path="/5B9EA780/5BB2E686" Ref="C?"  Part="1" 
AR Path="/5BBE9BF1/5BB2E686" Ref="C?"  Part="1" 
AR Path="/5C5D920E/5BB2E686" Ref="C52"  Part="1" 
F 0 "C52" H 2817 5746 50  0000 L CNN
F 1 "1uF" H 2817 5655 50  0000 L CNN
F 2 "Capacitor_SMD:C_0805_2012Metric" H 2725 5700 50  0001 C CNN
F 3 "~" H 2725 5700 50  0001 C CNN
	1    2725 5700
	1    0    0    -1  
$EndComp
$Comp
L power:GND #PWR?
U 1 1 5BB2E68D
P 2725 5950
AR Path="/5B9EA780/5BB2E68D" Ref="#PWR?"  Part="1" 
AR Path="/5BBE9BF1/5BB2E68D" Ref="#PWR?"  Part="1" 
AR Path="/5C5D920E/5BB2E68D" Ref="#PWR0155"  Part="1" 
F 0 "#PWR0155" H 2725 5700 50  0001 C CNN
F 1 "GND" H 2730 5777 50  0000 C CNN
F 2 "" H 2725 5950 50  0001 C CNN
F 3 "" H 2725 5950 50  0001 C CNN
	1    2725 5950
	1    0    0    -1  
$EndComp
Wire Wire Line
	2725 5800 2725 5950
$Comp
L Device:C_Small C?
U 1 1 5BB2E775
P 3725 5700
AR Path="/5B9EA780/5BB2E775" Ref="C?"  Part="1" 
AR Path="/5BBE9BF1/5BB2E775" Ref="C?"  Part="1" 
AR Path="/5C5D920E/5BB2E775" Ref="C54"  Part="1" 
F 0 "C54" H 3817 5746 50  0000 L CNN
F 1 "1uF" H 3817 5655 50  0000 L CNN
F 2 "Capacitor_SMD:C_0805_2012Metric" H 3725 5700 50  0001 C CNN
F 3 "~" H 3725 5700 50  0001 C CNN
	1    3725 5700
	1    0    0    -1  
$EndComp
$Comp
L power:GND #PWR?
U 1 1 5BB2E77C
P 3725 5950
AR Path="/5B9EA780/5BB2E77C" Ref="#PWR?"  Part="1" 
AR Path="/5BBE9BF1/5BB2E77C" Ref="#PWR?"  Part="1" 
AR Path="/5C5D920E/5BB2E77C" Ref="#PWR0156"  Part="1" 
F 0 "#PWR0156" H 3725 5700 50  0001 C CNN
F 1 "GND" H 3730 5777 50  0000 C CNN
F 2 "" H 3725 5950 50  0001 C CNN
F 3 "" H 3725 5950 50  0001 C CNN
	1    3725 5950
	1    0    0    -1  
$EndComp
Wire Wire Line
	3725 5800 3725 5950
Text HLabel 2175 5600 0    50   Input ~ 0
ONION_3V3
Connection ~ 2725 5600
$Comp
L power:GND #PWR0161
U 1 1 5BAE9B13
P 3125 2600
F 0 "#PWR0161" H 3125 2350 50  0001 C CNN
F 1 "GND" H 3130 2427 50  0000 C CNN
F 2 "" H 3125 2600 50  0001 C CNN
F 3 "" H 3125 2600 50  0001 C CNN
	1    3125 2600
	1    0    0    -1  
$EndComp
$Comp
L Device:R R?
U 1 1 5BAE7156
P 3875 2400
AR Path="/5B9EA780/5BAE7156" Ref="R?"  Part="1" 
AR Path="/5BAE7156" Ref="R?"  Part="1" 
AR Path="/5C5D920E/5BAE7156" Ref="R14"  Part="1" 
F 0 "R14" V 3775 2425 50  0000 L CNN
F 1 "100" V 3775 2250 50  0000 L CNN
F 2 "Resistor_SMD:R_1206_3216Metric" V 3805 2400 50  0001 C CNN
F 3 "~" H 3875 2400 50  0001 C CNN
	1    3875 2400
	0    -1   -1   0   
$EndComp
$Comp
L Device:R R?
U 1 1 5BAE697E
P 3875 2300
AR Path="/5B9EA780/5BAE697E" Ref="R?"  Part="1" 
AR Path="/5BAE697E" Ref="R?"  Part="1" 
AR Path="/5C5D920E/5BAE697E" Ref="R13"  Part="1" 
F 0 "R13" V 3950 2325 50  0000 L CNN
F 1 "100" V 3950 2150 50  0000 L CNN
F 2 "Resistor_SMD:R_1206_3216Metric" V 3805 2300 50  0001 C CNN
F 3 "~" H 3875 2300 50  0001 C CNN
	1    3875 2300
	0    -1   -1   0   
$EndComp
Text GLabel 4675 1575 2    50   Input ~ 0
+5V_USB
$Comp
L power:GND #PWR0159
U 1 1 5BAE47BB
P 3700 1875
F 0 "#PWR0159" H 3700 1625 50  0001 C CNN
F 1 "GND" H 3705 1702 50  0000 C CNN
F 2 "" H 3700 1875 50  0001 C CNN
F 3 "" H 3700 1875 50  0001 C CNN
	1    3700 1875
	1    0    0    -1  
$EndComp
Connection ~ 4075 1575
$Comp
L Device:C_Small C?
U 1 1 5BAE33A9
P 4075 1675
AR Path="/5B9EA780/5BAE33A9" Ref="C?"  Part="1" 
AR Path="/5BBE9BF1/5BAE33A9" Ref="C?"  Part="1" 
AR Path="/5C5D920E/5BAE33A9" Ref="C58"  Part="1" 
F 0 "C58" H 4167 1721 50  0000 L CNN
F 1 "0.1uF" H 4167 1630 50  0000 L CNN
F 2 "Capacitor_SMD:C_0805_2012Metric" H 4075 1675 50  0001 C CNN
F 3 "~" H 4075 1675 50  0001 C CNN
	1    4075 1675
	1    0    0    -1  
$EndComp
Text Label 4025 2300 0    50   ~ 0
ONION_USB-
Text Label 4025 2400 0    50   ~ 0
ONION_USB+
Text Label 7425 2500 0    50   ~ 0
ONION_USB-
Text Label 7425 2600 0    50   ~ 0
ONION_USB+
Wire Wire Line
	3300 2300 3400 2300
Wire Wire Line
	3400 2300 3725 2300
Connection ~ 3400 2300
Wire Wire Line
	3400 2600 3400 2300
Wire Wire Line
	3600 2400 3725 2400
Connection ~ 3600 2400
Wire Wire Line
	3600 2600 3600 2400
$Comp
L ICE40_ONION_MCU-rescue:SP0502BAHT-Power_Protection D0
U 1 1 5BAE5784
P 3500 2800
AR Path="/5BAE5784" Ref="D0"  Part="1" 
AR Path="/5C5D920E/5BAE5784" Ref="D0"  Part="1" 
F 0 "D0" H 3705 2846 50  0000 L CNN
F 1 "SP0502BAHT" H 3705 2755 50  0000 L CNN
F 2 "Package_TO_SOT_SMD:SOT-23" H 3725 2750 50  0001 L CNN
F 3 "http://www.littelfuse.com/~/media/files/littelfuse/technical%20resources/documents/data%20sheets/sp05xxba.pdf" H 3625 2925 50  0001 C CNN
	1    3500 2800
	1    0    0    -1  
$EndComp
$Comp
L power:GND #PWR0160
U 1 1 5BAE9248
P 3500 3000
F 0 "#PWR0160" H 3500 2750 50  0001 C CNN
F 1 "GND" H 3505 2827 50  0000 C CNN
F 2 "" H 3500 3000 50  0001 C CNN
F 3 "" H 3500 3000 50  0001 C CNN
	1    3500 3000
	1    0    0    -1  
$EndComp
$Comp
L elementos_creados:UJ2-MBH-1-SMT J10
U 1 1 5BB24D4B
P 2600 2175
F 0 "J10" H 2705 2742 50  0000 C CNN
F 1 "UJ2-MBH-1-SMT" H 2705 2651 50  0000 C CNN
F 2 "CUI_UJ2-MBH-1-SMT" H 2600 2175 50  0001 L BNN
F 3 "CUI INC" H 2600 2175 50  0001 L BNN
F 4 "MANUFACTURER RECOMMENDATION" H 2600 2175 50  0001 L BNN "Field4"
F 5 "1.0" H 2600 2175 50  0001 L BNN "Field5"
	1    2600 2175
	1    0    0    -1  
$EndComp
Wire Wire Line
	3000 1875 3300 1875
Wire Wire Line
	3300 1875 3300 1575
Wire Wire Line
	3000 1975 3300 1975
Wire Wire Line
	3300 1975 3300 2300
Wire Wire Line
	3000 2075 3250 2075
Wire Wire Line
	3250 2075 3250 2400
Wire Wire Line
	3250 2400 3600 2400
$Comp
L Device:CP C57
U 1 1 5BB6EF2A
P 3700 1725
F 0 "C57" H 3818 1771 50  0000 L CNN
F 1 "100uF" H 3818 1680 50  0000 L CNN
F 2 "Capacitor_SMD:CP_Elec_4x5.4" H 3738 1575 50  0001 C CNN
F 3 "~" H 3700 1725 50  0001 C CNN
	1    3700 1725
	1    0    0    -1  
$EndComp
Wire Wire Line
	3300 1575 3700 1575
Connection ~ 3700 1575
Wire Wire Line
	3700 1575 4075 1575
Wire Wire Line
	4075 1775 4075 1875
Wire Wire Line
	4075 1875 3700 1875
Connection ~ 3700 1875
$Comp
L Device:LED D?
U 1 1 5BB5F6B2
P 4325 4200
AR Path="/5B9EA780/5BB5F6B2" Ref="D?"  Part="1" 
AR Path="/5C5D920E/5BB5F6B2" Ref="D3"  Part="1" 
F 0 "D3" H 4300 4400 50  0000 L CNN
F 1 "LED" H 4250 4325 50  0000 L CNN
F 2 "LED_SMD:LED_0603_1608Metric" H 4325 4200 50  0001 C CNN
F 3 "~" H 4325 4200 50  0001 C CNN
	1    4325 4200
	-1   0    0    1   
$EndComp
Wire Wire Line
	5025 4200 5425 4200
$Comp
L Device:R R?
U 1 1 5BB6452D
P 4875 4200
AR Path="/5B9EA780/5BB6452D" Ref="R?"  Part="1" 
AR Path="/5BB6452D" Ref="R?"  Part="1" 
AR Path="/5C5D920E/5BB6452D" Ref="R17"  Part="1" 
F 0 "R17" V 4950 4225 50  0000 L CNN
F 1 "1K" V 4950 4050 50  0000 L CNN
F 2 "Resistor_SMD:R_1206_3216Metric" V 4805 4200 50  0001 C CNN
F 3 "~" H 4875 4200 50  0001 C CNN
	1    4875 4200
	0    -1   -1   0   
$EndComp
Wire Wire Line
	4475 4200 4725 4200
Text HLabel 4175 4200 0    50   Input ~ 0
ONION_3V3
$Comp
L Device:LED D?
U 1 1 5BB68C74
P 2825 6500
AR Path="/5B9EA780/5BB68C74" Ref="D?"  Part="1" 
AR Path="/5C5D920E/5BB68C74" Ref="D4"  Part="1" 
F 0 "D4" H 2800 6700 50  0000 L CNN
F 1 "LED" H 2750 6625 50  0000 L CNN
F 2 "LED_SMD:LED_0603_1608Metric" H 2825 6500 50  0001 C CNN
F 3 "~" H 2825 6500 50  0001 C CNN
	1    2825 6500
	-1   0    0    1   
$EndComp
Wire Wire Line
	3525 6500 3925 6500
$Comp
L Device:R R?
U 1 1 5BB68C7C
P 3375 6500
AR Path="/5B9EA780/5BB68C7C" Ref="R?"  Part="1" 
AR Path="/5BB68C7C" Ref="R?"  Part="1" 
AR Path="/5C5D920E/5BB68C7C" Ref="R18"  Part="1" 
F 0 "R18" V 3450 6525 50  0000 L CNN
F 1 "1K" V 3450 6350 50  0000 L CNN
F 2 "Resistor_SMD:R_1206_3216Metric" V 3305 6500 50  0001 C CNN
F 3 "~" H 3375 6500 50  0001 C CNN
	1    3375 6500
	0    -1   -1   0   
$EndComp
Wire Wire Line
	2975 6500 3225 6500
Text HLabel 2675 6500 0    50   Input ~ 0
ONION_3V3
$Comp
L power:GND #PWR?
U 1 1 5BB6A607
P 3925 6500
AR Path="/5B9EA780/5BB6A607" Ref="#PWR?"  Part="1" 
AR Path="/5BBE9BF1/5BB6A607" Ref="#PWR?"  Part="1" 
AR Path="/5C5D920E/5BB6A607" Ref="#PWR0164"  Part="1" 
F 0 "#PWR0164" H 3925 6250 50  0001 C CNN
F 1 "GND" H 3930 6327 50  0000 C CNN
F 2 "" H 3925 6500 50  0001 C CNN
F 3 "" H 3925 6500 50  0001 C CNN
	1    3925 6500
	1    0    0    -1  
$EndComp
Wire Wire Line
	10000 1575 10000 1350
Wire Wire Line
	9150 1575 10000 1575
Wire Wire Line
	9150 1775 9150 2000
Text HLabel 10000 1350 0    50   Input ~ 0
ONION_3V3
Wire Wire Line
	9900 2000 10000 2000
Connection ~ 10000 1575
Wire Wire Line
	10000 2000 10000 1575
$Comp
L power:GND #PWR0163
U 1 1 5BB44110
P 9150 2500
F 0 "#PWR0163" H 9150 2250 50  0001 C CNN
F 1 "GND" H 9155 2327 50  0000 C CNN
F 2 "" H 9150 2500 50  0001 C CNN
F 3 "" H 9150 2500 50  0001 C CNN
	1    9150 2500
	1    0    0    -1  
$EndComp
Wire Wire Line
	9475 2000 9500 2000
Wire Wire Line
	9150 2000 9175 2000
$Comp
L Device:R R?
U 1 1 5BB396CE
P 9325 2000
AR Path="/5B9EA780/5BB396CE" Ref="R?"  Part="1" 
AR Path="/5BB396CE" Ref="R?"  Part="1" 
AR Path="/5C5D920E/5BB396CE" Ref="R16"  Part="1" 
F 0 "R16" V 9400 2025 50  0000 L CNN
F 1 "10K" V 9400 1850 50  0000 L CNN
F 2 "Resistor_SMD:R_1206_3216Metric" V 9255 2000 50  0001 C CNN
F 3 "~" H 9325 2000 50  0001 C CNN
	1    9325 2000
	0    -1   -1   0   
$EndComp
$Comp
L Switch:SW_Push SW1
U 1 1 5BB37348
P 9700 2000
F 0 "SW1" H 9700 2285 50  0000 C CNN
F 1 "SW_Push" H 9700 2194 50  0000 C CNN
F 2 "Button_Switch_THT:SW_TH_Tactile_Omron_B3F-10xx" H 9700 2200 50  0001 C CNN
F 3 "" H 9700 2200 50  0001 C CNN
	1    9700 2000
	1    0    0    -1  
$EndComp
Connection ~ 9150 2000
$Comp
L Device:R R?
U 1 1 5BB3ADEF
P 9150 2150
AR Path="/5B9EA780/5BB3ADEF" Ref="R?"  Part="1" 
AR Path="/5BB3ADEF" Ref="R?"  Part="1" 
AR Path="/5C5D920E/5BB3ADEF" Ref="R15"  Part="1" 
F 0 "R15" H 9225 2175 50  0000 L CNN
F 1 "10K" H 9225 2250 50  0000 L CNN
F 2 "Resistor_SMD:R_1206_3216Metric" V 9080 2150 50  0001 C CNN
F 3 "~" H 9150 2150 50  0001 C CNN
	1    9150 2150
	-1   0    0    1   
$EndComp
Wire Wire Line
	9150 2300 9150 2500
$Comp
L Device:C_Small C?
U 1 1 5BB7586D
P 9150 1675
AR Path="/5B9EA780/5BB7586D" Ref="C?"  Part="1" 
AR Path="/5BBE9BF1/5BB7586D" Ref="C?"  Part="1" 
AR Path="/5C5D920E/5BB7586D" Ref="C68"  Part="1" 
F 0 "C68" H 9242 1721 50  0000 L CNN
F 1 "10uF" H 9242 1630 50  0000 L CNN
F 2 "Capacitor_SMD:C_0805_2012Metric" H 9150 1675 50  0001 C CNN
F 3 "~" H 9150 1675 50  0001 C CNN
	1    9150 1675
	1    0    0    -1  
$EndComp
Text Label 5425 2500 2    50   ~ 0
ONION_GPIO_36
Text Label 5425 2800 2    50   ~ 0
RESET_N
Text Label 5425 2900 2    50   ~ 0
ONION_GPIO_39
Text Label 5425 3000 2    50   ~ 0
ONION_GPIO_40
Text Label 5425 3900 2    50   ~ 0
ONION_GPIO_41
Text Label 5425 4000 2    50   ~ 0
ONION_GPIO_42
Text Label 5425 4100 2    50   ~ 0
ONION_GPIO_43
Text Label 5425 4300 2    50   ~ 0
ONION_GPIO_45
Text Label 5425 4400 2    50   ~ 0
ONION_GPIO_46
Text Label 7425 4800 0    50   ~ 0
ONION_GPIO_12
Text Label 7425 4700 0    50   ~ 0
ONION_GPIO_13
Text Label 7425 3600 0    50   ~ 0
ONION_GPIO_20
Text Label 7425 3500 0    50   ~ 0
ONION_GPIO_21
Text Label 7425 3400 0    50   ~ 0
ONION_GPIO_22
Text Label 7425 3300 0    50   ~ 0
ONION_GPIO_23
Text Label 7425 3200 0    50   ~ 0
ONION_GPIO_24
Text Label 7425 3100 0    50   ~ 0
ONION_GPIO_25
Text Label 7425 3000 0    50   ~ 0
ONION_GPIO_26
Text Label 7425 2900 0    50   ~ 0
ONION_GPIO_28
Text Label 7425 2800 0    50   ~ 0
ONION_GPIO_29
Text Label 7425 2700 0    50   ~ 0
ONION_GPIO_27
Text Label 5825 5500 3    50   ~ 0
ONION_GPIO_00
Text Label 5925 5500 3    50   ~ 0
ONION_GPIO_01
Text Label 6025 5500 3    50   ~ 0
ONION_GPIO_02
Text Label 6125 5500 3    50   ~ 0
ONION_GPIO_03
Text Label 6225 5500 3    50   ~ 0
ONION_GPIO_04
Text Label 6325 5500 3    50   ~ 0
ONION_GPIO_05
$Comp
L Connector_Generic:Conn_02x05_Counter_Clockwise J8
U 1 1 5BB84B31
P 10050 5650
F 0 "J8" H 10100 6067 50  0000 C CNN
F 1 "Conn_02x05_ONION_COM" H 10100 5976 50  0000 C CNN
F 2 "ICE40_ONION_MCU:PinSocket_2x05_P2.54mm_Vertical_modify" H 10050 5650 50  0001 C CNN
F 3 "~" H 10050 5650 50  0001 C CNN
	1    10050 5650
	1    0    0    -1  
$EndComp
Text Label 5425 3300 2    50   ~ 0
ONION_PCIE_TX-
Text Label 5425 3400 2    50   ~ 0
ONION_PCIE_TX+
Text Label 5425 3600 2    50   ~ 0
ONION_PCIE_RX-
Text Label 5425 3500 2    50   ~ 0
ONION_PCIE_RX+
Text Label 5425 3700 2    50   ~ 0
ONION_PCIE_CK-
Text Label 5425 3800 2    50   ~ 0
ONION_PCIE_CK+
Text Label 7425 4300 0    50   ~ 0
ONION_ETH_TX-
Text Label 7425 4400 0    50   ~ 0
ONION_ETH_TX+
Text Label 7425 4600 0    50   ~ 0
ONION_ETH_RX-
Text Label 7425 4500 0    50   ~ 0
ONION_ETH_RX+
Text Label 10350 5450 0    50   ~ 0
ONION_PCIE_TX-
Text Label 9850 5850 2    50   ~ 0
ONION_PCIE_TX+
Text Label 9850 5650 2    50   ~ 0
ONION_PCIE_RX-
Text Label 9850 5750 2    50   ~ 0
ONION_PCIE_RX+
Text Label 9850 5550 2    50   ~ 0
ONION_PCIE_CK-
Text Label 9850 5450 2    50   ~ 0
ONION_PCIE_CK+
Text Label 10350 5550 0    50   ~ 0
ONION_ETH_TX-
Text Label 10350 5650 0    50   ~ 0
ONION_ETH_TX+
Text Label 10350 5850 0    50   ~ 0
ONION_ETH_RX-
Text Label 10350 5750 0    50   ~ 0
ONION_ETH_RX+
$Comp
L Connector_Generic:Conn_02x01 J?
U 1 1 5BBAA43F
P 3275 4725
AR Path="/5B9EA780/5BBAA43F" Ref="J?"  Part="1" 
AR Path="/5C5D920E/5BBAA43F" Ref="J9"  Part="1" 
F 0 "J9" H 3325 4942 50  0000 C CNN
F 1 "Conn_02x01_ONION_ANTENNA" H 3325 4851 50  0000 C CNN
F 2 "ICE40_ONION_MCU:PinSocket_2x01_P2.54mm_Vertical_modify" H 3275 4725 50  0001 C CNN
F 3 "~" H 3275 4725 50  0001 C CNN
	1    3275 4725
	1    0    0    -1  
$EndComp
Text Label 5425 4700 2    50   ~ 0
ONION_ANTENNA
Text Label 3075 4725 2    50   ~ 0
ONION_ANTENNA
$Comp
L power:GND #PWR0170
U 1 1 5BBAE315
P 3825 4825
F 0 "#PWR0170" H 3825 4575 50  0001 C CNN
F 1 "GND" H 3830 4652 50  0000 C CNN
F 2 "" H 3825 4825 50  0001 C CNN
F 3 "" H 3825 4825 50  0001 C CNN
	1    3825 4825
	1    0    0    -1  
$EndComp
Wire Wire Line
	3575 4725 3825 4725
Wire Wire Line
	3825 4725 3825 4825
$Comp
L Device:CP C56
U 1 1 5BC3D383
P 2175 5825
F 0 "C56" H 2293 5871 50  0000 L CNN
F 1 "33uF" H 2293 5780 50  0000 L CNN
F 2 "Capacitor_SMD:CP_Elec_4x5.4" H 2213 5675 50  0001 C CNN
F 3 "~" H 2175 5825 50  0001 C CNN
	1    2175 5825
	1    0    0    -1  
$EndComp
Wire Wire Line
	2175 5600 2175 5675
Wire Wire Line
	2175 5600 2725 5600
Connection ~ 3725 5600
Wire Wire Line
	4175 5800 4175 5950
$Comp
L power:GND #PWR?
U 1 1 5BB2E869
P 4175 5950
AR Path="/5B9EA780/5BB2E869" Ref="#PWR?"  Part="1" 
AR Path="/5BBE9BF1/5BB2E869" Ref="#PWR?"  Part="1" 
AR Path="/5C5D920E/5BB2E869" Ref="#PWR0157"  Part="1" 
F 0 "#PWR0157" H 4175 5700 50  0001 C CNN
F 1 "GND" H 4180 5777 50  0000 C CNN
F 2 "" H 4175 5950 50  0001 C CNN
F 3 "" H 4175 5950 50  0001 C CNN
	1    4175 5950
	1    0    0    -1  
$EndComp
Wire Wire Line
	4175 5600 3725 5600
$Comp
L Device:C_Small C?
U 1 1 5BB2E862
P 4175 5700
AR Path="/5B9EA780/5BB2E862" Ref="C?"  Part="1" 
AR Path="/5BBE9BF1/5BB2E862" Ref="C?"  Part="1" 
AR Path="/5C5D920E/5BB2E862" Ref="C55"  Part="1" 
F 0 "C55" H 4267 5746 50  0000 L CNN
F 1 "10uF" H 4267 5655 50  0000 L CNN
F 2 "Capacitor_SMD:C_0805_2012Metric" H 4175 5700 50  0001 C CNN
F 3 "~" H 4175 5700 50  0001 C CNN
	1    4175 5700
	1    0    0    -1  
$EndComp
$Comp
L power:GND #PWR?
U 1 1 5BC53576
P 2175 5975
AR Path="/5B9EA780/5BC53576" Ref="#PWR?"  Part="1" 
AR Path="/5BBE9BF1/5BC53576" Ref="#PWR?"  Part="1" 
AR Path="/5C5D920E/5BC53576" Ref="#PWR0182"  Part="1" 
F 0 "#PWR0182" H 2175 5725 50  0001 C CNN
F 1 "GND" H 2180 5802 50  0000 C CNN
F 2 "" H 2175 5975 50  0001 C CNN
F 3 "" H 2175 5975 50  0001 C CNN
	1    2175 5975
	1    0    0    -1  
$EndComp
$Comp
L Device:L L1
U 1 1 5BC55B75
P 2550 2900
F 0 "L1" H 2550 2675 50  0000 C CNN
F 1 "L" V 2649 2900 50  0000 C CNN
F 2 "Inductor_SMD:L_0603_1608Metric" H 2550 2900 50  0001 C CNN
F 3 "~" H 2550 2900 50  0001 C CNN
	1    2550 2900
	-1   0    0    1   
$EndComp
$Comp
L Device:C_Small C?
U 1 1 5BC59F5B
P 2700 2850
AR Path="/5B9EA780/5BC59F5B" Ref="C?"  Part="1" 
AR Path="/5BBE9BF1/5BC59F5B" Ref="C?"  Part="1" 
AR Path="/5C5D920E/5BC59F5B" Ref="C77"  Part="1" 
F 0 "C77" H 2792 2896 50  0000 L CNN
F 1 "0.1uF" H 2792 2805 50  0000 L CNN
F 2 "Capacitor_SMD:C_0805_2012Metric" H 2700 2850 50  0001 C CNN
F 3 "~" H 2700 2850 50  0001 C CNN
	1    2700 2850
	1    0    0    -1  
$EndComp
Wire Wire Line
	3000 2175 3125 2175
Wire Wire Line
	3125 2175 3125 2275
Wire Wire Line
	3000 2475 3000 2725
$Comp
L power:GND #PWR0183
U 1 1 5BC70040
P 2550 3125
F 0 "#PWR0183" H 2550 2875 50  0001 C CNN
F 1 "GND" H 2555 2952 50  0000 C CNN
F 2 "" H 2550 3125 50  0001 C CNN
F 3 "" H 2550 3125 50  0001 C CNN
	1    2550 3125
	1    0    0    -1  
$EndComp
Wire Wire Line
	2550 3050 2550 3075
Wire Wire Line
	2700 2950 2700 3075
Wire Wire Line
	2700 3075 2550 3075
Connection ~ 2550 3075
Wire Wire Line
	2550 3075 2550 3125
Wire Wire Line
	3000 2275 3125 2275
Connection ~ 3125 2275
Wire Wire Line
	3125 2275 3125 2600
Wire Wire Line
	3000 2725 2700 2725
Wire Wire Line
	2550 2725 2550 2750
Wire Wire Line
	2700 2750 2700 2725
Connection ~ 2700 2725
Wire Wire Line
	2700 2725 2550 2725
Wire Wire Line
	4075 1575 4675 1575
Text HLabel 10125 3725 2    50   Input ~ 0
ONION_3V3
$Comp
L Connector_Generic:Conn_02x08_Counter_Clockwise J7
U 1 1 5C346D09
P 9825 3825
F 0 "J7" H 9875 4342 50  0000 C CNN
F 1 "Conn_02x08_Onion_pin" H 9875 4251 50  0000 C CNN
F 2 "ICE40_ONION_MCU:PinSocket_2x08_P2.54mm_Vertical_modify" H 9825 3825 50  0001 C CNN
F 3 "~" H 9825 3825 50  0001 C CNN
	1    9825 3825
	1    0    0    -1  
$EndComp
Text Label 9625 3525 2    50   ~ 0
ONION_GPIO_36
Text Label 9625 3625 2    50   ~ 0
ONION_GPIO_37
Text Label 9625 3725 2    50   ~ 0
RESET_N
Text Label 9625 3825 2    50   ~ 0
ONION_GPIO_39
Text Label 9625 3925 2    50   ~ 0
ONION_GPIO_40
Text Label 9625 4025 2    50   ~ 0
ONION_PCIE_TX-
Text Label 9625 4125 2    50   ~ 0
ONION_PCIE_TX+
Text Label 9625 4225 2    50   ~ 0
ONION_PCIE_RX+
Text Label 10125 3825 0    50   ~ 0
ONION_GPIO_41
Text Label 10125 4225 0    50   ~ 0
ONION_PCIE_RX-
Text Label 10125 4125 0    50   ~ 0
ONION_PCIE_CK-
Text Label 10125 4025 0    50   ~ 0
ONION_PCIE_CK+
Text Label 10125 3625 0    50   ~ 0
ONION_GPIO_45
Text Label 10125 3525 0    50   ~ 0
ONION_GPIO_46
$Comp
L power:GND #PWR0169
U 1 1 5C371FA2
P 10900 3975
F 0 "#PWR0169" H 10900 3725 50  0001 C CNN
F 1 "GND" H 10905 3802 50  0000 C CNN
F 2 "" H 10900 3975 50  0001 C CNN
F 3 "" H 10900 3975 50  0001 C CNN
	1    10900 3975
	1    0    0    -1  
$EndComp
Wire Wire Line
	10125 3925 10900 3925
Wire Wire Line
	10900 3925 10900 3975
Text HLabel 5425 2600 0    50   Input ~ 0
TACTILE_RESET
$EndSCHEMATC
