(module Connector_PinSocket_2.54mm:PinSocket_2x06_P2.54mm_Vertical (layer F.Cu) (tedit 5BB3A187)
  (descr "Through hole straight socket strip, 2x06, 2.54mm pitch, double cols (from Kicad 4.0.7), script generated")
  (tags "Through hole socket strip THT 2x06 2.54mm double row")
  (fp_text reference REF** (at -0.133532 -2.712116) (layer F.SilkS)
    (effects (font (size 1 1) (thickness 0.15)))
  )
  (fp_text value PinSocket_2x06_P2.54mm_Vertical (at -1.27 15.47) (layer F.Fab)
    (effects (font (size 1 1) (thickness 0.15)))
  )
  (fp_text user %R (at -0.133532 6.407884 90) (layer F.Fab)
    (effects (font (size 1 1) (thickness 0.15)))
  )
  (fp_line (start 2.936468 14.507884) (end 2.936468 -1.742116) (layer F.CrtYd) (width 0.05))
  (fp_line (start -3.163532 14.507884) (end 2.936468 14.507884) (layer F.CrtYd) (width 0.05))
  (fp_line (start -3.163532 -1.742116) (end -3.163532 14.507884) (layer F.CrtYd) (width 0.05))
  (fp_line (start 2.936468 -1.742116) (end -3.163532 -1.742116) (layer F.CrtYd) (width 0.05))
  (fp_line (start -1.403532 -1.272116) (end -2.733532 -1.272116) (layer F.SilkS) (width 0.12))
  (fp_line (start -2.733532 -1.272116) (end -2.733532 0.057884) (layer F.SilkS) (width 0.12))
  (fp_line (start -0.133532 -1.272116) (end -0.133532 1.327884) (layer F.SilkS) (width 0.12))
  (fp_line (start -0.133532 1.327884) (end -2.733532 1.327884) (layer F.SilkS) (width 0.12))
  (fp_line (start -2.733532 1.327884) (end -2.733532 14.087884) (layer F.SilkS) (width 0.12))
  (fp_line (start 2.466468 14.087884) (end -2.733532 14.087884) (layer F.SilkS) (width 0.12))
  (fp_line (start 2.466468 -1.272116) (end 2.466468 14.087884) (layer F.SilkS) (width 0.12))
  (fp_line (start 2.466468 -1.272116) (end -0.133532 -1.272116) (layer F.SilkS) (width 0.12))
  (fp_line (start 2.406468 14.027884) (end 2.406468 -1.212116) (layer F.Fab) (width 0.1))
  (fp_line (start -2.673532 14.027884) (end 2.406468 14.027884) (layer F.Fab) (width 0.1))
  (fp_line (start -2.673532 -0.212116) (end -2.673532 14.027884) (layer F.Fab) (width 0.1))
  (fp_line (start -1.673532 -1.212116) (end -2.673532 -0.212116) (layer F.Fab) (width 0.1))
  (fp_line (start 2.406468 -1.212116) (end -1.673532 -1.212116) (layer F.Fab) (width 0.1))
  (pad 7 thru_hole oval (at 1.136468 12.757884) (size 1.7 1.7) (drill 1) (layers *.Cu *.Mask))
  (pad 6 thru_hole oval (at -1.403532 12.757884) (size 1.7 1.7) (drill 1) (layers *.Cu *.Mask))
  (pad 8 thru_hole oval (at 1.136468 10.217884) (size 1.7 1.7) (drill 1) (layers *.Cu *.Mask))
  (pad 5 thru_hole oval (at -1.403532 10.217884) (size 1.7 1.7) (drill 1) (layers *.Cu *.Mask))
  (pad 9 thru_hole oval (at 1.136468 7.677884) (size 1.7 1.7) (drill 1) (layers *.Cu *.Mask))
  (pad 4 thru_hole oval (at -1.403532 7.677884) (size 1.7 1.7) (drill 1) (layers *.Cu *.Mask))
  (pad 10 thru_hole oval (at 1.136468 5.137884) (size 1.7 1.7) (drill 1) (layers *.Cu *.Mask))
  (pad 3 thru_hole oval (at -1.403532 5.137884) (size 1.7 1.7) (drill 1) (layers *.Cu *.Mask))
  (pad 11 thru_hole oval (at 1.136468 2.597884) (size 1.7 1.7) (drill 1) (layers *.Cu *.Mask))
  (pad 2 thru_hole oval (at -1.403532 2.597884) (size 1.7 1.7) (drill 1) (layers *.Cu *.Mask))
  (pad 12 thru_hole oval (at 1.136468 0.057884) (size 1.7 1.7) (drill 1) (layers *.Cu *.Mask))
  (pad 1 thru_hole rect (at -1.403532 0.057884) (size 1.7 1.7) (drill 1) (layers *.Cu *.Mask))
  (model ${KISYS3DMOD}/Connector_PinSocket_2.54mm.3dshapes/PinSocket_2x06_P2.54mm_Vertical.wrl
    (at (xyz 0 0 0))
    (scale (xyz 1 1 1))
    (rotate (xyz 0 0 0))
  )
)
