PCBNEW-LibModule-V1  
# encoding utf-8
Units mm
$INDEX
CUI_PJ-002A
$EndINDEX
$MODULE CUI_PJ-002A
Po 0 0 0 15 00000000 00000000 ~~
Li CUI_PJ-002A
Cd 
Sc 00000000
At STD
Op 0 0 0
.SolderMask 0
.SolderPaste 0
T0 1.85256 -6.77441 1.00139 1.00139 0 0.05 N V 21 "CUI_PJ-002A"
T1 2.4927 5.79292 1.0031 1.0031 0 0.05 N V 21 "VAL**"
DS 0.5 1.75 -0.5 1.75 0.0001 28
DS -0.5 1.75 -0.5 -1.75 0.0001 28
DS -0.5 -1.75 0.5 -1.75 0.0001 28
DS 0.5 -1.75 0.5 1.75 0.0001 28
DS 6.5 1.5 5.5 1.5 0.0001 28
DS 5.5 1.5 5.5 -1.5 0.0001 28
DS 5.5 -1.5 6.5 -1.5 0.0001 28
DS 6.5 -1.5 6.5 1.5 0.0001 28
DS 1.5 -4.2 1.5 -5.2 0.0001 28
DS 1.5 -5.2 4.5 -5.2 0.0001 28
DS 4.5 -5.2 4.5 -4.2 0.0001 28
DS 4.5 -4.2 1.5 -4.2 0.0001 28
DS -0.7 -4.5 13.7 -4.5 0.127 24
DS 13.7 -4.5 13.7 4.5 0.127 24
DS 13.7 4.5 -0.7 4.5 0.127 24
DS -0.7 4.5 -0.7 -4.5 0.127 24
DS 13.7 -4.5 13.7 4.5 0.127 21
DS 13.7 4.5 -0.7 4.5 0.127 21
DS -0.7 -4.5 0.45 -4.5 0.127 21
DS -0.7 4.5 -0.7 2.65 0.127 21
DS 5.55 -4.5 13.7 -4.5 0.127 21
DS -0.7 -2.55 -0.7 -4.5 0.127 21
DS -1 -4.75 0.45 -4.75 0.05 26
DS 0.45 -4.75 0.45 -6.1 0.05 26
DS 0.45 -6.1 5.55 -6.1 0.05 26
DS 5.55 -6.1 5.55 -4.75 0.05 26
DS 5.55 -4.75 14 -4.75 0.05 26
DS 14 -4.75 14 4.75 0.05 26
DS 14 4.75 -1 4.75 0.05 26
DS -1 4.75 -1 2.35 0.05 26
DC -2 0 -1.8 0 0.4 21
DS -1 -2.25 -1 -4.75 0.05 26
DS -1 -2.25 -1.55 -2.25 0.05 26
DS -1.55 -2.25 -1.55 2.35 0.05 26
DS -1.55 2.35 -1 2.35 0.05 26
$PAD
Sh "1" O 5 2.5 0 0 900
Dr 1 0 0
At STD N 00C0FFFF
.SolderMask 0
Ne 0 ""
Po 0 0
$EndPAD
$PAD
Sh "2" O 4.5 2.25 0 0 900
Dr 1 0 0
At STD N 00C0FFFF
.SolderMask 0
Ne 0 ""
Po 6 0
$EndPAD
$PAD
Sh "3" O 4.5 2.25 0 0 1800
Dr 1 0 0
At STD N 00C0FFFF
.SolderMask 0
Ne 0 ""
Po 3 -4.7
$EndPAD
$EndMODULE CUI_PJ-002A
