EESchema Schematic File Version 4
LIBS:ICE40_ONION_MCU-cache
EELAYER 26 0
EELAYER END
$Descr A2 23386 16535
encoding utf-8
Sheet 3 5
Title ""
Date ""
Rev ""
Comp ""
Comment1 ""
Comment2 ""
Comment3 ""
Comment4 ""
$EndDescr
$Comp
L power:GND #PWR0132
U 1 1 5BC5810E
P 12400 11075
F 0 "#PWR0132" H 12400 10825 50  0001 C CNN
F 1 "GND" H 12405 10902 50  0000 C CNN
F 2 "" H 12400 11075 50  0001 C CNN
F 3 "" H 12400 11075 50  0001 C CNN
	1    12400 11075
	1    0    0    -1  
$EndComp
Wire Wire Line
	12400 11075 12400 10875
Text HLabel 16700 9575 2    50   Input ~ 0
MCU_NE1
Text HLabel 16700 9475 2    50   Input ~ 0
MCU_NWAIT
Text HLabel 16700 9375 2    50   Input ~ 0
MCU_NWE
Text HLabel 16700 9275 2    50   Input ~ 0
MCU_NOE
Text HLabel 16700 9175 2    50   Input ~ 0
MCU_FCM_CLK
Text Label 16700 8975 0    50   ~ 0
FCM_DA3
Text Label 16700 9675 0    50   ~ 0
FCM_DA13
Text Label 16700 9775 0    50   ~ 0
FCM_DA14
Text Label 16700 9875 0    50   ~ 0
FCM_DA15
Text Label 16700 10275 0    50   ~ 0
FCM_DA0
Text Label 16700 10375 0    50   ~ 0
FCM_DA1
Entry Wire Line
	17300 9675 17400 9775
Entry Wire Line
	17300 9775 17400 9875
Entry Wire Line
	17300 9875 17400 9975
Entry Wire Line
	17300 10275 17400 10375
Entry Wire Line
	17300 10375 17400 10475
Entry Wire Line
	17300 8875 17400 8975
Entry Wire Line
	17300 8975 17400 9075
Wire Wire Line
	16700 8875 17300 8875
Wire Wire Line
	16700 8975 17300 8975
Wire Wire Line
	16700 10275 17300 10275
Wire Wire Line
	16700 10375 17300 10375
Wire Bus Line
	17400 10475 17675 10475
Wire Wire Line
	17300 9675 16700 9675
Wire Wire Line
	17300 9775 16700 9775
Wire Wire Line
	17300 9875 16700 9875
Text HLabel 16700 6175 2    50   Input ~ 0
MCU_NADV
$Comp
L Device:C_Small C?
U 1 1 5BA065F3
P 17825 8425
AR Path="/5B9EA780/5BA065F3" Ref="C?"  Part="1" 
AR Path="/5BBE9BF1/5BA065F3" Ref="C37"  Part="1" 
F 0 "C37" V 18000 8475 50  0000 L CNN
F 1 "22pF" V 17917 8380 50  0000 L CNN
F 2 "Capacitor_SMD:C_0805_2012Metric" H 17825 8425 50  0001 C CNN
F 3 "~" H 17825 8425 50  0001 C CNN
	1    17825 8425
	0    -1   -1   0   
$EndComp
$Comp
L Device:C_Small C?
U 1 1 5BA06CF2
P 17825 8875
AR Path="/5B9EA780/5BA06CF2" Ref="C?"  Part="1" 
AR Path="/5BBE9BF1/5BA06CF2" Ref="C36"  Part="1" 
F 0 "C36" V 18000 8925 50  0000 L CNN
F 1 "22pF" V 17917 8830 50  0000 L CNN
F 2 "Capacitor_SMD:C_0805_2012Metric" H 17825 8875 50  0001 C CNN
F 3 "~" H 17825 8875 50  0001 C CNN
	1    17825 8875
	0    -1   -1   0   
$EndComp
Wire Wire Line
	17525 8500 17525 8425
$Comp
L power:GND #PWR0134
U 1 1 5BA07BBD
P 17925 9025
F 0 "#PWR0134" H 17925 8775 50  0001 C CNN
F 1 "GND" H 17930 8852 50  0000 C CNN
F 2 "" H 17925 9025 50  0001 C CNN
F 3 "" H 17925 9025 50  0001 C CNN
	1    17925 9025
	1    0    0    -1  
$EndComp
Wire Wire Line
	17525 8425 17725 8425
$Comp
L Device:Crystal Y2
U 1 1 5BA07306
P 17525 8650
F 0 "Y2" H 17525 8918 50  0000 C CNN
F 1 "Crystal" H 17525 8827 50  0000 C CNN
F 2 "Crystal:Crystal_SMD_3215-2Pin_3.2x1.5mm" H 17525 8650 50  0001 C CNN
F 3 "~" H 17525 8650 50  0001 C CNN
	1    17525 8650
	0    -1   -1   0   
$EndComp
Wire Wire Line
	17725 8875 17525 8875
Wire Wire Line
	17525 8875 17525 8800
Wire Wire Line
	17925 8425 17925 8875
Wire Wire Line
	17925 9025 17925 8875
Connection ~ 17925 8875
Wire Wire Line
	16700 8675 17175 8675
Wire Wire Line
	17175 8675 17175 8800
Wire Wire Line
	17175 8800 17525 8800
Connection ~ 17525 8800
Wire Wire Line
	16700 8575 17175 8575
Wire Wire Line
	17175 8575 17175 8500
Wire Wire Line
	17175 8500 17525 8500
Connection ~ 17525 8500
$Comp
L Device:C_Small C?
U 1 1 5BA0BC0C
P 5875 5025
AR Path="/5B9EA780/5BA0BC0C" Ref="C?"  Part="1" 
AR Path="/5BBE9BF1/5BA0BC0C" Ref="C34"  Part="1" 
F 0 "C34" V 6050 5075 50  0000 L CNN
F 1 "22pF" V 5967 4980 50  0000 L CNN
F 2 "Capacitor_SMD:C_0805_2012Metric" H 5875 5025 50  0001 C CNN
F 3 "~" H 5875 5025 50  0001 C CNN
	1    5875 5025
	0    1    -1   0   
$EndComp
$Comp
L Device:C_Small C?
U 1 1 5BA0BC13
P 5875 5475
AR Path="/5B9EA780/5BA0BC13" Ref="C?"  Part="1" 
AR Path="/5BBE9BF1/5BA0BC13" Ref="C35"  Part="1" 
F 0 "C35" V 6050 5525 50  0000 L CNN
F 1 "22pF" V 5967 5430 50  0000 L CNN
F 2 "Capacitor_SMD:C_0805_2012Metric" H 5875 5475 50  0001 C CNN
F 3 "~" H 5875 5475 50  0001 C CNN
	1    5875 5475
	0    1    -1   0   
$EndComp
$Comp
L power:GND #PWR0135
U 1 1 5BA0BC1B
P 5775 5625
F 0 "#PWR0135" H 5775 5375 50  0001 C CNN
F 1 "GND" H 5780 5452 50  0000 C CNN
F 2 "" H 5775 5625 50  0001 C CNN
F 3 "" H 5775 5625 50  0001 C CNN
	1    5775 5625
	-1   0    0    -1  
$EndComp
Wire Wire Line
	5775 5025 5775 5475
Wire Wire Line
	5775 5625 5775 5475
Connection ~ 5775 5475
Wire Wire Line
	7050 5175 7300 5175
Wire Wire Line
	7050 5275 7300 5275
Wire Bus Line
	6650 10475 6375 10475
Entry Wire Line
	6750 9575 6650 9675
Entry Wire Line
	6750 9675 6650 9775
Entry Wire Line
	6750 9775 6650 9875
Entry Wire Line
	6750 9875 6650 9975
Entry Wire Line
	6750 9975 6650 10075
Entry Wire Line
	6750 10075 6650 10175
Entry Wire Line
	6750 10175 6650 10275
Entry Wire Line
	6750 10275 6650 10375
Entry Wire Line
	6750 10375 6650 10475
Connection ~ 12000 10875
Wire Wire Line
	12000 10875 11900 10875
Connection ~ 11900 10875
Wire Wire Line
	11800 10875 11900 10875
Connection ~ 11800 10875
Wire Wire Line
	11800 10875 11700 10875
Connection ~ 11700 10875
Wire Wire Line
	11700 10875 11600 10875
Wire Wire Line
	11500 10875 11600 10875
Connection ~ 11600 10875
Connection ~ 12400 10875
Wire Wire Line
	12400 10875 12300 10875
Connection ~ 12300 10875
Wire Wire Line
	12300 10875 12200 10875
Connection ~ 12200 10875
Wire Wire Line
	12200 10875 12100 10875
Wire Wire Line
	12100 10875 12000 10875
Connection ~ 12100 10875
$Comp
L elementos_creados:STM32F446ZETx-MCU_ST_STM32 U3
U 1 1 5B9EFCD2
P 12000 7075
F 0 "U3" H 13850 3200 50  0000 C CNN
F 1 "STM32F446ZETx-MCU_ST_STM32" H 13850 3075 50  0000 C CNN
F 2 "ICE40_ONION_MCU:TQFP-144_20x20mm_Pitch0.5mm" H 16500 10750 50  0001 R TNN
F 3 "" H 12000 7075 50  0001 C CNN
	1    12000 7075
	1    0    0    -1  
$EndComp
Text Label 7300 9575 2    50   ~ 0
FCM_DA4
Text Label 7300 9675 2    50   ~ 0
FCM_DA5
Text Label 7300 9775 2    50   ~ 0
FCM_DA6
Text Label 7300 9875 2    50   ~ 0
FCM_DA7
Text Label 7300 9975 2    50   ~ 0
FCM_DA8
Text Label 7300 10075 2    50   ~ 0
FCM_DA9
Text Label 7300 10175 2    50   ~ 0
FCM_DA10
Text Label 7300 10275 2    50   ~ 0
FCM_DA11
Text Label 7300 10375 2    50   ~ 0
FCM_DA12
Wire Wire Line
	7300 9575 6750 9575
Wire Wire Line
	7300 9675 6750 9675
Wire Wire Line
	7300 9775 6750 9775
Wire Wire Line
	7300 9875 6750 9875
Wire Wire Line
	7300 9975 6750 9975
Wire Wire Line
	7300 10075 6750 10075
Wire Wire Line
	7300 10175 6750 10175
Wire Wire Line
	7300 10275 6750 10275
Wire Wire Line
	7300 10375 6750 10375
Text Label 16700 9975 0    50   ~ 0
FCM_A16
Text Label 16700 10075 0    50   ~ 0
FCM_A17
Text Label 16700 10175 0    50   ~ 0
FCM_A18
Wire Bus Line
	17600 10125 17875 10125
Text HLabel 17875 10125 2    50   Input ~ 0
FCM_A[24..16]
Entry Wire Line
	17500 10225 17600 10125
Entry Wire Line
	17500 10025 17600 9925
Entry Wire Line
	17500 10125 17600 10025
Wire Wire Line
	16700 9975 17350 9975
Wire Wire Line
	17350 9975 17350 10025
Wire Wire Line
	17350 10025 17500 10025
Wire Wire Line
	16700 10075 17350 10075
Wire Wire Line
	17350 10075 17350 10125
Wire Wire Line
	17350 10125 17500 10125
Wire Wire Line
	16700 10175 17350 10175
Wire Wire Line
	17350 10175 17350 10225
Wire Wire Line
	17350 10225 17500 10225
Wire Bus Line
	6650 9175 6375 9175
Text HLabel 6375 9175 0    50   Input ~ 0
FCM_A[24..16]
Text Label 7300 9175 2    50   ~ 0
FCM_A19
Text Label 7300 9075 2    50   ~ 0
FCM_A23
Text Label 7300 9275 2    50   ~ 0
FCM_A20
Text Label 7300 9375 2    50   ~ 0
FCM_A21
Text Label 7300 9475 2    50   ~ 0
FCM_A22
Entry Wire Line
	6750 9075 6650 9175
Entry Wire Line
	6750 9175 6650 9275
Entry Wire Line
	6750 9275 6650 9375
Entry Wire Line
	6750 9375 6650 9475
Entry Wire Line
	6750 9475 6650 9575
Wire Wire Line
	7300 9075 6750 9075
Wire Wire Line
	7300 9175 6750 9175
Wire Wire Line
	7300 9275 6750 9275
Text HLabel 7300 8875 0    50   Input ~ 0
MCU_NBL0
Text HLabel 7300 8975 0    50   Input ~ 0
MCU_NBL1
Wire Bus Line
	6675 6875 6400 6875
Text HLabel 6400 6875 0    50   Input ~ 0
FCM_A[24..16]
Text Label 7300 6775 2    50   ~ 0
FCM_A24
Entry Wire Line
	6775 6775 6675 6875
Wire Wire Line
	7300 6775 6775 6775
$Comp
L Device:C_Small C?
U 1 1 5BAE8594
P 2125 12500
AR Path="/5B9EA780/5BAE8594" Ref="C?"  Part="1" 
AR Path="/5BBE9BF1/5BAE8594" Ref="C38"  Part="1" 
F 0 "C38" H 2217 12546 50  0000 L CNN
F 1 "0.1uF" H 2217 12455 50  0000 L CNN
F 2 "Capacitor_SMD:C_0805_2012Metric" H 2125 12500 50  0001 C CNN
F 3 "~" H 2125 12500 50  0001 C CNN
	1    2125 12500
	1    0    0    -1  
$EndComp
$Comp
L power:GND #PWR?
U 1 1 5BAE859B
P 2125 12750
AR Path="/5B9EA780/5BAE859B" Ref="#PWR?"  Part="1" 
AR Path="/5BBE9BF1/5BAE859B" Ref="#PWR0136"  Part="1" 
F 0 "#PWR0136" H 2125 12500 50  0001 C CNN
F 1 "GND" H 2130 12577 50  0000 C CNN
F 2 "" H 2125 12750 50  0001 C CNN
F 3 "" H 2125 12750 50  0001 C CNN
	1    2125 12750
	1    0    0    -1  
$EndComp
Wire Wire Line
	2125 12600 2125 12750
$Comp
L Device:C_Small C?
U 1 1 5BAE85A2
P 2650 12500
AR Path="/5B9EA780/5BAE85A2" Ref="C?"  Part="1" 
AR Path="/5BBE9BF1/5BAE85A2" Ref="C39"  Part="1" 
F 0 "C39" H 2742 12546 50  0000 L CNN
F 1 "0.1uF" H 2742 12455 50  0000 L CNN
F 2 "Capacitor_SMD:C_0805_2012Metric" H 2650 12500 50  0001 C CNN
F 3 "~" H 2650 12500 50  0001 C CNN
	1    2650 12500
	1    0    0    -1  
$EndComp
$Comp
L power:GND #PWR?
U 1 1 5BAE85A9
P 2650 12750
AR Path="/5B9EA780/5BAE85A9" Ref="#PWR?"  Part="1" 
AR Path="/5BBE9BF1/5BAE85A9" Ref="#PWR0137"  Part="1" 
F 0 "#PWR0137" H 2650 12500 50  0001 C CNN
F 1 "GND" H 2655 12577 50  0000 C CNN
F 2 "" H 2650 12750 50  0001 C CNN
F 3 "" H 2650 12750 50  0001 C CNN
	1    2650 12750
	1    0    0    -1  
$EndComp
Wire Wire Line
	2650 12600 2650 12750
$Comp
L Device:C_Small C?
U 1 1 5BAE85B0
P 3125 12500
AR Path="/5B9EA780/5BAE85B0" Ref="C?"  Part="1" 
AR Path="/5BBE9BF1/5BAE85B0" Ref="C40"  Part="1" 
F 0 "C40" H 3217 12546 50  0000 L CNN
F 1 "0.1uF" H 3217 12455 50  0000 L CNN
F 2 "Capacitor_SMD:C_0805_2012Metric" H 3125 12500 50  0001 C CNN
F 3 "~" H 3125 12500 50  0001 C CNN
	1    3125 12500
	1    0    0    -1  
$EndComp
$Comp
L power:GND #PWR?
U 1 1 5BAE85B7
P 3125 12750
AR Path="/5B9EA780/5BAE85B7" Ref="#PWR?"  Part="1" 
AR Path="/5BBE9BF1/5BAE85B7" Ref="#PWR0138"  Part="1" 
F 0 "#PWR0138" H 3125 12500 50  0001 C CNN
F 1 "GND" H 3130 12577 50  0000 C CNN
F 2 "" H 3125 12750 50  0001 C CNN
F 3 "" H 3125 12750 50  0001 C CNN
	1    3125 12750
	1    0    0    -1  
$EndComp
Wire Wire Line
	3125 12600 3125 12750
$Comp
L Device:C_Small C?
U 1 1 5BAE85BE
P 3650 12500
AR Path="/5B9EA780/5BAE85BE" Ref="C?"  Part="1" 
AR Path="/5BBE9BF1/5BAE85BE" Ref="C41"  Part="1" 
F 0 "C41" H 3742 12546 50  0000 L CNN
F 1 "0.1uF" H 3742 12455 50  0000 L CNN
F 2 "Capacitor_SMD:C_0805_2012Metric" H 3650 12500 50  0001 C CNN
F 3 "~" H 3650 12500 50  0001 C CNN
	1    3650 12500
	1    0    0    -1  
$EndComp
$Comp
L power:GND #PWR?
U 1 1 5BAE85C5
P 3650 12750
AR Path="/5B9EA780/5BAE85C5" Ref="#PWR?"  Part="1" 
AR Path="/5BBE9BF1/5BAE85C5" Ref="#PWR0139"  Part="1" 
F 0 "#PWR0139" H 3650 12500 50  0001 C CNN
F 1 "GND" H 3655 12577 50  0000 C CNN
F 2 "" H 3650 12750 50  0001 C CNN
F 3 "" H 3650 12750 50  0001 C CNN
	1    3650 12750
	1    0    0    -1  
$EndComp
Wire Wire Line
	3650 12600 3650 12750
$Comp
L Device:C_Small C?
U 1 1 5BAE85CC
P 4100 12500
AR Path="/5B9EA780/5BAE85CC" Ref="C?"  Part="1" 
AR Path="/5BBE9BF1/5BAE85CC" Ref="C42"  Part="1" 
F 0 "C42" H 4192 12546 50  0000 L CNN
F 1 "0.1uF" H 4192 12455 50  0000 L CNN
F 2 "Capacitor_SMD:C_0805_2012Metric" H 4100 12500 50  0001 C CNN
F 3 "~" H 4100 12500 50  0001 C CNN
	1    4100 12500
	1    0    0    -1  
$EndComp
$Comp
L power:GND #PWR?
U 1 1 5BAE85D3
P 4100 12750
AR Path="/5B9EA780/5BAE85D3" Ref="#PWR?"  Part="1" 
AR Path="/5BBE9BF1/5BAE85D3" Ref="#PWR0140"  Part="1" 
F 0 "#PWR0140" H 4100 12500 50  0001 C CNN
F 1 "GND" H 4105 12577 50  0000 C CNN
F 2 "" H 4100 12750 50  0001 C CNN
F 3 "" H 4100 12750 50  0001 C CNN
	1    4100 12750
	1    0    0    -1  
$EndComp
Wire Wire Line
	4100 12600 4100 12750
$Comp
L Device:C_Small C?
U 1 1 5BAE85DA
P 4625 12500
AR Path="/5B9EA780/5BAE85DA" Ref="C?"  Part="1" 
AR Path="/5BBE9BF1/5BAE85DA" Ref="C43"  Part="1" 
F 0 "C43" H 4717 12546 50  0000 L CNN
F 1 "0.1uF" H 4717 12455 50  0000 L CNN
F 2 "Capacitor_SMD:C_0805_2012Metric" H 4625 12500 50  0001 C CNN
F 3 "~" H 4625 12500 50  0001 C CNN
	1    4625 12500
	1    0    0    -1  
$EndComp
$Comp
L power:GND #PWR?
U 1 1 5BAE85E1
P 4625 12750
AR Path="/5B9EA780/5BAE85E1" Ref="#PWR?"  Part="1" 
AR Path="/5BBE9BF1/5BAE85E1" Ref="#PWR0141"  Part="1" 
F 0 "#PWR0141" H 4625 12500 50  0001 C CNN
F 1 "GND" H 4630 12577 50  0000 C CNN
F 2 "" H 4625 12750 50  0001 C CNN
F 3 "" H 4625 12750 50  0001 C CNN
	1    4625 12750
	1    0    0    -1  
$EndComp
Wire Wire Line
	4625 12600 4625 12750
$Comp
L Device:C_Small C?
U 1 1 5BAE85E8
P 5175 12500
AR Path="/5B9EA780/5BAE85E8" Ref="C?"  Part="1" 
AR Path="/5BBE9BF1/5BAE85E8" Ref="C44"  Part="1" 
F 0 "C44" H 5267 12546 50  0000 L CNN
F 1 "0.1uF" H 5267 12455 50  0000 L CNN
F 2 "Capacitor_SMD:C_0805_2012Metric" H 5175 12500 50  0001 C CNN
F 3 "~" H 5175 12500 50  0001 C CNN
	1    5175 12500
	1    0    0    -1  
$EndComp
$Comp
L power:GND #PWR?
U 1 1 5BAE85EF
P 5175 12750
AR Path="/5B9EA780/5BAE85EF" Ref="#PWR?"  Part="1" 
AR Path="/5BBE9BF1/5BAE85EF" Ref="#PWR0142"  Part="1" 
F 0 "#PWR0142" H 5175 12500 50  0001 C CNN
F 1 "GND" H 5180 12577 50  0000 C CNN
F 2 "" H 5175 12750 50  0001 C CNN
F 3 "" H 5175 12750 50  0001 C CNN
	1    5175 12750
	1    0    0    -1  
$EndComp
Wire Wire Line
	5175 12600 5175 12750
Wire Wire Line
	2125 12400 2650 12400
Wire Wire Line
	3125 12400 2650 12400
Connection ~ 2650 12400
Wire Wire Line
	3650 12400 3125 12400
Connection ~ 3125 12400
Wire Wire Line
	4100 12400 3650 12400
Connection ~ 3650 12400
Wire Wire Line
	4625 12400 4100 12400
Connection ~ 4100 12400
Wire Wire Line
	5175 12400 4625 12400
Connection ~ 4625 12400
Text HLabel 2125 12400 0    50   Input ~ 0
VCC_MCU_3V3
$Comp
L Device:C_Small C?
U 1 1 5BAEB4C3
P 5700 12500
AR Path="/5B9EA780/5BAEB4C3" Ref="C?"  Part="1" 
AR Path="/5BBE9BF1/5BAEB4C3" Ref="C45"  Part="1" 
F 0 "C45" H 5792 12546 50  0000 L CNN
F 1 "0.1uF" H 5792 12455 50  0000 L CNN
F 2 "Capacitor_SMD:C_0805_2012Metric" H 5700 12500 50  0001 C CNN
F 3 "~" H 5700 12500 50  0001 C CNN
	1    5700 12500
	1    0    0    -1  
$EndComp
$Comp
L power:GND #PWR?
U 1 1 5BAEB4CA
P 5700 12750
AR Path="/5B9EA780/5BAEB4CA" Ref="#PWR?"  Part="1" 
AR Path="/5BBE9BF1/5BAEB4CA" Ref="#PWR0143"  Part="1" 
F 0 "#PWR0143" H 5700 12500 50  0001 C CNN
F 1 "GND" H 5705 12577 50  0000 C CNN
F 2 "" H 5700 12750 50  0001 C CNN
F 3 "" H 5700 12750 50  0001 C CNN
	1    5700 12750
	1    0    0    -1  
$EndComp
Wire Wire Line
	5700 12600 5700 12750
$Comp
L Device:C_Small C?
U 1 1 5BAEB4D1
P 6225 12500
AR Path="/5B9EA780/5BAEB4D1" Ref="C?"  Part="1" 
AR Path="/5BBE9BF1/5BAEB4D1" Ref="C46"  Part="1" 
F 0 "C46" H 6317 12546 50  0000 L CNN
F 1 "0.1uF" H 6317 12455 50  0000 L CNN
F 2 "Capacitor_SMD:C_0805_2012Metric" H 6225 12500 50  0001 C CNN
F 3 "~" H 6225 12500 50  0001 C CNN
	1    6225 12500
	1    0    0    -1  
$EndComp
$Comp
L power:GND #PWR?
U 1 1 5BAEB4D8
P 6225 12750
AR Path="/5B9EA780/5BAEB4D8" Ref="#PWR?"  Part="1" 
AR Path="/5BBE9BF1/5BAEB4D8" Ref="#PWR0144"  Part="1" 
F 0 "#PWR0144" H 6225 12500 50  0001 C CNN
F 1 "GND" H 6230 12577 50  0000 C CNN
F 2 "" H 6225 12750 50  0001 C CNN
F 3 "" H 6225 12750 50  0001 C CNN
	1    6225 12750
	1    0    0    -1  
$EndComp
Wire Wire Line
	6225 12600 6225 12750
$Comp
L Device:C_Small C?
U 1 1 5BAEB4DF
P 6700 12500
AR Path="/5B9EA780/5BAEB4DF" Ref="C?"  Part="1" 
AR Path="/5BBE9BF1/5BAEB4DF" Ref="C47"  Part="1" 
F 0 "C47" H 6792 12546 50  0000 L CNN
F 1 "0.1uF" H 6792 12455 50  0000 L CNN
F 2 "Capacitor_SMD:C_0805_2012Metric" H 6700 12500 50  0001 C CNN
F 3 "~" H 6700 12500 50  0001 C CNN
	1    6700 12500
	1    0    0    -1  
$EndComp
$Comp
L power:GND #PWR?
U 1 1 5BAEB4E6
P 6700 12750
AR Path="/5B9EA780/5BAEB4E6" Ref="#PWR?"  Part="1" 
AR Path="/5BBE9BF1/5BAEB4E6" Ref="#PWR0145"  Part="1" 
F 0 "#PWR0145" H 6700 12500 50  0001 C CNN
F 1 "GND" H 6705 12577 50  0000 C CNN
F 2 "" H 6700 12750 50  0001 C CNN
F 3 "" H 6700 12750 50  0001 C CNN
	1    6700 12750
	1    0    0    -1  
$EndComp
Wire Wire Line
	6700 12600 6700 12750
$Comp
L Device:C_Small C?
U 1 1 5BAEB4ED
P 7225 12500
AR Path="/5B9EA780/5BAEB4ED" Ref="C?"  Part="1" 
AR Path="/5BBE9BF1/5BAEB4ED" Ref="C48"  Part="1" 
F 0 "C48" H 7317 12546 50  0000 L CNN
F 1 "0.1uF" H 7317 12455 50  0000 L CNN
F 2 "Capacitor_SMD:C_0805_2012Metric" H 7225 12500 50  0001 C CNN
F 3 "~" H 7225 12500 50  0001 C CNN
	1    7225 12500
	1    0    0    -1  
$EndComp
$Comp
L power:GND #PWR?
U 1 1 5BAEB4F4
P 7225 12750
AR Path="/5B9EA780/5BAEB4F4" Ref="#PWR?"  Part="1" 
AR Path="/5BBE9BF1/5BAEB4F4" Ref="#PWR0146"  Part="1" 
F 0 "#PWR0146" H 7225 12500 50  0001 C CNN
F 1 "GND" H 7230 12577 50  0000 C CNN
F 2 "" H 7225 12750 50  0001 C CNN
F 3 "" H 7225 12750 50  0001 C CNN
	1    7225 12750
	1    0    0    -1  
$EndComp
Wire Wire Line
	7225 12600 7225 12750
$Comp
L Device:C_Small C?
U 1 1 5BAEB4FB
P 7675 12500
AR Path="/5B9EA780/5BAEB4FB" Ref="C?"  Part="1" 
AR Path="/5BBE9BF1/5BAEB4FB" Ref="C49"  Part="1" 
F 0 "C49" H 7767 12546 50  0000 L CNN
F 1 "0.1uF" H 7767 12455 50  0000 L CNN
F 2 "Capacitor_SMD:C_0805_2012Metric" H 7675 12500 50  0001 C CNN
F 3 "~" H 7675 12500 50  0001 C CNN
	1    7675 12500
	1    0    0    -1  
$EndComp
$Comp
L power:GND #PWR?
U 1 1 5BAEB502
P 7675 12750
AR Path="/5B9EA780/5BAEB502" Ref="#PWR?"  Part="1" 
AR Path="/5BBE9BF1/5BAEB502" Ref="#PWR0147"  Part="1" 
F 0 "#PWR0147" H 7675 12500 50  0001 C CNN
F 1 "GND" H 7680 12577 50  0000 C CNN
F 2 "" H 7675 12750 50  0001 C CNN
F 3 "" H 7675 12750 50  0001 C CNN
	1    7675 12750
	1    0    0    -1  
$EndComp
Wire Wire Line
	7675 12600 7675 12750
$Comp
L Device:C_Small C?
U 1 1 5BAEB509
P 8200 12500
AR Path="/5B9EA780/5BAEB509" Ref="C?"  Part="1" 
AR Path="/5BBE9BF1/5BAEB509" Ref="C50"  Part="1" 
F 0 "C50" H 8292 12546 50  0000 L CNN
F 1 "0.1uF" H 8292 12455 50  0000 L CNN
F 2 "Capacitor_SMD:C_0805_2012Metric" H 8200 12500 50  0001 C CNN
F 3 "~" H 8200 12500 50  0001 C CNN
	1    8200 12500
	1    0    0    -1  
$EndComp
$Comp
L power:GND #PWR?
U 1 1 5BAEB510
P 8200 12750
AR Path="/5B9EA780/5BAEB510" Ref="#PWR?"  Part="1" 
AR Path="/5BBE9BF1/5BAEB510" Ref="#PWR0148"  Part="1" 
F 0 "#PWR0148" H 8200 12500 50  0001 C CNN
F 1 "GND" H 8205 12577 50  0000 C CNN
F 2 "" H 8200 12750 50  0001 C CNN
F 3 "" H 8200 12750 50  0001 C CNN
	1    8200 12750
	1    0    0    -1  
$EndComp
Wire Wire Line
	8200 12600 8200 12750
Wire Wire Line
	5175 12400 5700 12400
Connection ~ 5175 12400
Wire Wire Line
	5700 12400 6225 12400
Connection ~ 5700 12400
Wire Wire Line
	6225 12400 6700 12400
Connection ~ 6225 12400
Wire Wire Line
	6700 12400 7225 12400
Connection ~ 6700 12400
Wire Wire Line
	7225 12400 7675 12400
Connection ~ 7225 12400
Wire Wire Line
	7675 12400 8200 12400
Connection ~ 7675 12400
Wire Wire Line
	6750 9375 7300 9375
Wire Wire Line
	6750 9475 7300 9475
Text HLabel 6375 10475 0    50   Input ~ 0
FCM_DA[0..15]
Text HLabel 17675 10475 2    50   Input ~ 0
FCM_DA[0..15]
Text Label 16700 8875 0    50   ~ 0
FCM_DA2
Text HLabel 16700 5275 2    50   Input ~ 0
MCU_JTAG_TDI
Text HLabel 16700 5175 2    50   Input ~ 0
MCU_JTAG_TCK
Text HLabel 16700 5075 2    50   Input ~ 0
MCU_JTAG_TMS
Text HLabel 16700 5775 2    50   Input ~ 0
MCU_JTAG_TDO
Text HLabel 16700 5875 2    50   Input ~ 0
MCU_JTAG_TRS
Wire Wire Line
	16700 5675 17625 5675
$Comp
L Device:R R?
U 1 1 5BAB3188
P 17625 5925
AR Path="/5B9EA780/5BAB3188" Ref="R?"  Part="1" 
AR Path="/5BAB3188" Ref="R?"  Part="1" 
AR Path="/5BBE9BF1/5BAB3188" Ref="R12"  Part="1" 
F 0 "R12" V 17700 5950 50  0000 L CNN
F 1 "100" V 17700 5775 50  0000 L CNN
F 2 "Resistor_SMD:R_1206_3216Metric" V 17555 5925 50  0001 C CNN
F 3 "~" H 17625 5925 50  0001 C CNN
	1    17625 5925
	-1   0    0    1   
$EndComp
Wire Wire Line
	17625 5775 17625 5675
Connection ~ 17625 5675
$Comp
L power:GND #PWR0153
U 1 1 5BAC83F1
P 17625 6225
F 0 "#PWR0153" H 17625 5975 50  0001 C CNN
F 1 "GND" H 17630 6052 50  0000 C CNN
F 2 "" H 17625 6225 50  0001 C CNN
F 3 "" H 17625 6225 50  0001 C CNN
	1    17625 6225
	1    0    0    -1  
$EndComp
Wire Wire Line
	17625 6075 17625 6225
Text HLabel 17800 5675 2    50   Input ~ 0
MCU_BOOt
Wire Wire Line
	17625 5675 17800 5675
Wire Wire Line
	11400 3175 11400 3075
Wire Wire Line
	11400 3075 11500 3075
Wire Wire Line
	11500 3075 11500 3175
Wire Wire Line
	11600 3175 11600 3075
Wire Wire Line
	11600 3075 11500 3075
Connection ~ 11500 3075
Wire Wire Line
	11700 3175 11700 3075
Wire Wire Line
	11700 3075 11600 3075
Connection ~ 11600 3075
Wire Wire Line
	11800 3175 11800 3075
Wire Wire Line
	11800 3075 11700 3075
Connection ~ 11700 3075
Wire Wire Line
	11900 3175 11900 3075
Wire Wire Line
	11900 3075 11800 3075
Connection ~ 11800 3075
Wire Wire Line
	12000 3175 12000 3075
Wire Wire Line
	12000 3075 11900 3075
Connection ~ 11900 3075
Wire Wire Line
	12100 3175 12100 3075
Wire Wire Line
	12100 3075 12000 3075
Connection ~ 12000 3075
Wire Wire Line
	12200 3175 12200 3075
Wire Wire Line
	12200 3075 12100 3075
Connection ~ 12100 3075
Wire Wire Line
	12300 3175 12300 3075
Wire Wire Line
	12300 3075 12200 3075
Connection ~ 12200 3075
Wire Wire Line
	12400 3175 12400 3075
Wire Wire Line
	12400 3075 12300 3075
Connection ~ 12300 3075
Text HLabel 11400 3075 0    50   Input ~ 0
VCC_MCU_3V3
$Comp
L Device:Crystal_GND24 Y1
U 1 1 5BB2F468
P 6575 5250
F 0 "Y1" V 6621 5009 50  0000 R CNN
F 1 "Crystal_GND24" V 6530 5009 50  0000 R CNN
F 2 "Crystal:Crystal_SMD_3225-4Pin_3.2x2.5mm" H 6575 5250 50  0001 C CNN
F 3 "~" H 6575 5250 50  0001 C CNN
	1    6575 5250
	0    -1   -1   0   
$EndComp
Wire Wire Line
	6575 5025 6575 5100
Wire Wire Line
	5975 5025 6575 5025
Wire Wire Line
	6575 5475 6575 5400
Wire Wire Line
	5975 5475 6575 5475
Wire Wire Line
	7050 5025 6575 5025
Wire Wire Line
	7050 5025 7050 5175
Connection ~ 6575 5025
Wire Wire Line
	7050 5475 6575 5475
Wire Wire Line
	7050 5275 7050 5475
Connection ~ 6575 5475
$Comp
L power:GND #PWR0162
U 1 1 5BB5FB65
P 6375 5775
F 0 "#PWR0162" H 6375 5525 50  0001 C CNN
F 1 "GND" H 6380 5602 50  0000 C CNN
F 2 "" H 6375 5775 50  0001 C CNN
F 3 "" H 6375 5775 50  0001 C CNN
	1    6375 5775
	-1   0    0    -1  
$EndComp
Wire Wire Line
	6375 5250 6375 5675
Wire Wire Line
	6775 5250 6775 5675
Wire Wire Line
	6775 5675 6375 5675
Connection ~ 6375 5675
Wire Wire Line
	6375 5675 6375 5775
$Comp
L power:GND #PWR?
U 1 1 5BB2C753
P 18100 2975
AR Path="/5C5D920E/5BB2C753" Ref="#PWR?"  Part="1" 
AR Path="/5BBE9BF1/5BB2C753" Ref="#PWR0171"  Part="1" 
F 0 "#PWR0171" H 18100 2725 50  0001 C CNN
F 1 "GND" H 18105 2802 50  0000 C CNN
F 2 "" H 18100 2975 50  0001 C CNN
F 3 "" H 18100 2975 50  0001 C CNN
	1    18100 2975
	1    0    0    -1  
$EndComp
$Comp
L Device:R R?
U 1 1 5BB2C75B
P 18550 1950
AR Path="/5B9EA780/5BB2C75B" Ref="R?"  Part="1" 
AR Path="/5BB2C75B" Ref="R?"  Part="1" 
AR Path="/5C5D920E/5BB2C75B" Ref="R?"  Part="1" 
AR Path="/5BBE9BF1/5BB2C75B" Ref="R19"  Part="1" 
F 0 "R19" H 18625 1900 50  0000 L CNN
F 1 "10K" H 18625 2000 50  0000 L CNN
F 2 "Resistor_SMD:R_1206_3216Metric" V 18480 1950 50  0001 C CNN
F 3 "~" H 18550 1950 50  0001 C CNN
	1    18550 1950
	-1   0    0    1   
$EndComp
$Comp
L Switch:SW_Push SW?
U 1 1 5BB2C762
P 18300 2475
AR Path="/5C5D920E/5BB2C762" Ref="SW?"  Part="1" 
AR Path="/5BBE9BF1/5BB2C762" Ref="SW2"  Part="1" 
F 0 "SW2" H 18300 2760 50  0000 C CNN
F 1 "SW_Push" H 18300 2669 50  0000 C CNN
F 2 "Button_Switch_THT:SW_TH_Tactile_Omron_B3F-10xx" H 18300 2675 50  0001 C CNN
F 3 "" H 18300 2675 50  0001 C CNN
	1    18300 2475
	1    0    0    -1  
$EndComp
$Comp
L Device:C_Small C?
U 1 1 5BB2C772
P 18550 2675
AR Path="/5B9EA780/5BB2C772" Ref="C?"  Part="1" 
AR Path="/5BBE9BF1/5BB2C772" Ref="C70"  Part="1" 
AR Path="/5C5D920E/5BB2C772" Ref="C?"  Part="1" 
F 0 "C70" H 18642 2721 50  0000 L CNN
F 1 "0.1uF" H 18642 2630 50  0000 L CNN
F 2 "Capacitor_SMD:C_0805_2012Metric" H 18550 2675 50  0001 C CNN
F 3 "~" H 18550 2675 50  0001 C CNN
	1    18550 2675
	1    0    0    -1  
$EndComp
Text HLabel 18550 1575 2    50   Input ~ 0
VCC_MCU_3V3
Wire Wire Line
	18500 2475 18550 2475
Wire Wire Line
	18550 2100 18550 2475
Connection ~ 18550 2475
Wire Wire Line
	18550 2475 18675 2475
Wire Wire Line
	18550 1800 18550 1575
Wire Wire Line
	18550 2575 18550 2475
Wire Wire Line
	18100 2475 18100 2775
Wire Wire Line
	18550 2775 18100 2775
Connection ~ 18100 2775
Wire Wire Line
	18100 2775 18100 2975
$Comp
L Device:C_Small C?
U 1 1 5BBEDB64
P 5250 4575
AR Path="/5B9EA780/5BBEDB64" Ref="C?"  Part="1" 
AR Path="/5BBE9BF1/5BBEDB64" Ref="C71"  Part="1" 
AR Path="/5C5D920E/5BBEDB64" Ref="C?"  Part="1" 
F 0 "C71" H 5342 4621 50  0000 L CNN
F 1 "2.2uF" H 5342 4530 50  0000 L CNN
F 2 "Capacitor_SMD:C_0805_2012Metric" H 5250 4575 50  0001 C CNN
F 3 "~" H 5250 4575 50  0001 C CNN
	1    5250 4575
	1    0    0    -1  
$EndComp
$Comp
L Device:C_Small C?
U 1 1 5BBF2D0C
P 5625 4675
AR Path="/5B9EA780/5BBF2D0C" Ref="C?"  Part="1" 
AR Path="/5BBE9BF1/5BBF2D0C" Ref="C72"  Part="1" 
AR Path="/5C5D920E/5BBF2D0C" Ref="C?"  Part="1" 
F 0 "C72" H 5717 4721 50  0000 L CNN
F 1 "2.2uF" H 5717 4630 50  0000 L CNN
F 2 "Capacitor_SMD:C_0805_2012Metric" H 5625 4675 50  0001 C CNN
F 3 "~" H 5625 4675 50  0001 C CNN
	1    5625 4675
	1    0    0    -1  
$EndComp
Wire Wire Line
	7300 4475 5250 4475
Wire Wire Line
	7300 4575 5625 4575
$Comp
L power:GND #PWR0172
U 1 1 5BC0C8CC
P 5250 5125
F 0 "#PWR0172" H 5250 4875 50  0001 C CNN
F 1 "GND" H 5255 4952 50  0000 C CNN
F 2 "" H 5250 5125 50  0001 C CNN
F 3 "" H 5250 5125 50  0001 C CNN
	1    5250 5125
	-1   0    0    -1  
$EndComp
Wire Wire Line
	5250 4675 5250 4775
Wire Wire Line
	5625 4775 5250 4775
Connection ~ 5250 4775
Wire Wire Line
	5250 4775 5250 5125
$Comp
L Device:Battery_Cell BT1
U 1 1 5BB2E38D
P 3800 4525
F 0 "BT1" H 3918 4621 50  0000 L CNN
F 1 "Battery_Cell" H 3918 4530 50  0000 L CNN
F 2 "Battery:BatteryHolder_Keystone_1058_1x2032" V 3800 4585 50  0001 C CNN
F 3 "~" V 3800 4585 50  0001 C CNN
	1    3800 4525
	1    0    0    -1  
$EndComp
$Comp
L Device:R R?
U 1 1 5BB52586
P 4125 4275
AR Path="/5B9EA780/5BB52586" Ref="R?"  Part="1" 
AR Path="/5BB52586" Ref="R?"  Part="1" 
AR Path="/5C5D920E/5BB52586" Ref="R?"  Part="1" 
AR Path="/5BBE9BF1/5BB52586" Ref="R20"  Part="1" 
F 0 "R20" V 3925 4225 50  0000 L CNN
F 1 "0" V 4025 4225 50  0000 L CNN
F 2 "Resistor_SMD:R_1206_3216Metric" V 4055 4275 50  0001 C CNN
F 3 "~" H 4125 4275 50  0001 C CNN
	1    4125 4275
	0    1    1    0   
$EndComp
$Comp
L power:GND #PWR0173
U 1 1 5BB9D85E
P 3800 4625
F 0 "#PWR0173" H 3800 4375 50  0001 C CNN
F 1 "GND" H 3805 4452 50  0000 C CNN
F 2 "" H 3800 4625 50  0001 C CNN
F 3 "" H 3800 4625 50  0001 C CNN
	1    3800 4625
	-1   0    0    -1  
$EndComp
$Comp
L Device:R R?
U 1 1 5BBA9B68
P 4525 4050
AR Path="/5B9EA780/5BBA9B68" Ref="R?"  Part="1" 
AR Path="/5BBA9B68" Ref="R?"  Part="1" 
AR Path="/5C5D920E/5BBA9B68" Ref="R?"  Part="1" 
AR Path="/5BBE9BF1/5BBA9B68" Ref="R21"  Part="1" 
F 0 "R21" H 4600 4000 50  0000 L CNN
F 1 "0" H 4600 4100 50  0000 L CNN
F 2 "Resistor_SMD:R_1206_3216Metric" V 4455 4050 50  0001 C CNN
F 3 "~" H 4525 4050 50  0001 C CNN
	1    4525 4050
	-1   0    0    1   
$EndComp
Text HLabel 4425 3650 0    50   Input ~ 0
VCC_MCU_3V3
$Comp
L Device:C_Small C?
U 1 1 5BBC26D7
P 4525 4500
AR Path="/5B9EA780/5BBC26D7" Ref="C?"  Part="1" 
AR Path="/5BBE9BF1/5BBC26D7" Ref="C73"  Part="1" 
AR Path="/5C5D920E/5BBC26D7" Ref="C?"  Part="1" 
F 0 "C73" H 4617 4546 50  0000 L CNN
F 1 "0.1uF" H 4617 4455 50  0000 L CNN
F 2 "Capacitor_SMD:C_0805_2012Metric" H 4525 4500 50  0001 C CNN
F 3 "~" H 4525 4500 50  0001 C CNN
	1    4525 4500
	1    0    0    -1  
$EndComp
$Comp
L power:GND #PWR0174
U 1 1 5BBCE98B
P 4525 4600
F 0 "#PWR0174" H 4525 4350 50  0001 C CNN
F 1 "GND" H 4530 4427 50  0000 C CNN
F 2 "" H 4525 4600 50  0001 C CNN
F 3 "" H 4525 4600 50  0001 C CNN
	1    4525 4600
	-1   0    0    -1  
$EndComp
$Comp
L Device:C_Small C?
U 1 1 5BBDB373
P 5875 3900
AR Path="/5B9EA780/5BBDB373" Ref="C?"  Part="1" 
AR Path="/5BBE9BF1/5BBDB373" Ref="C75"  Part="1" 
AR Path="/5C5D920E/5BBDB373" Ref="C?"  Part="1" 
F 0 "C75" H 5967 3946 50  0000 L CNN
F 1 "0.1uF" H 5967 3855 50  0000 L CNN
F 2 "Capacitor_SMD:C_0805_2012Metric" H 5875 3900 50  0001 C CNN
F 3 "~" H 5875 3900 50  0001 C CNN
	1    5875 3900
	1    0    0    -1  
$EndComp
$Comp
L Device:C_Small C?
U 1 1 5BBE1722
P 5400 3875
AR Path="/5B9EA780/5BBE1722" Ref="C?"  Part="1" 
AR Path="/5BBE9BF1/5BBE1722" Ref="C74"  Part="1" 
AR Path="/5C5D920E/5BBE1722" Ref="C?"  Part="1" 
F 0 "C74" H 5492 3921 50  0000 L CNN
F 1 "1uF" H 5492 3830 50  0000 L CNN
F 2 "Capacitor_SMD:C_0805_2012Metric" H 5400 3875 50  0001 C CNN
F 3 "~" H 5400 3875 50  0001 C CNN
	1    5400 3875
	1    0    0    -1  
$EndComp
Wire Wire Line
	7300 4375 6300 4375
Wire Wire Line
	5400 3750 5400 3775
Wire Wire Line
	5875 3800 5875 3750
Wire Wire Line
	5875 3750 5400 3750
Wire Wire Line
	5400 3975 5400 4050
Wire Wire Line
	5400 4050 5650 4050
Wire Wire Line
	5875 4050 5875 4000
$Comp
L power:GND #PWR0175
U 1 1 5BC0EDA7
P 5650 4075
F 0 "#PWR0175" H 5650 3825 50  0001 C CNN
F 1 "GND" H 5650 3925 50  0000 C CNN
F 2 "" H 5650 4075 50  0001 C CNN
F 3 "" H 5650 4075 50  0001 C CNN
	1    5650 4075
	-1   0    0    -1  
$EndComp
Wire Wire Line
	5650 4075 5650 4050
Connection ~ 5650 4050
Wire Wire Line
	5650 4050 5875 4050
Wire Wire Line
	4525 3650 4425 3650
$Comp
L Device:L L?
U 1 1 5BCA2724
P 11175 2125
AR Path="/5C5D920E/5BCA2724" Ref="L?"  Part="1" 
AR Path="/5BBE9BF1/5BCA2724" Ref="L2"  Part="1" 
F 0 "L2" V 11365 2125 50  0000 C CNN
F 1 "L" V 11274 2125 50  0000 C CNN
F 2 "Inductor_SMD:L_0603_1608Metric" H 11175 2125 50  0001 C CNN
F 3 "~" H 11175 2125 50  0001 C CNN
	1    11175 2125
	0    -1   -1   0   
$EndComp
$Comp
L Device:C_Small C?
U 1 1 5BCD123A
P 11425 2300
AR Path="/5B9EA780/5BCD123A" Ref="C?"  Part="1" 
AR Path="/5BBE9BF1/5BCD123A" Ref="C76"  Part="1" 
AR Path="/5C5D920E/5BCD123A" Ref="C?"  Part="1" 
F 0 "C76" H 11517 2346 50  0000 L CNN
F 1 "1uF" H 11517 2255 50  0000 L CNN
F 2 "Capacitor_SMD:C_0805_2012Metric" H 11425 2300 50  0001 C CNN
F 3 "~" H 11425 2300 50  0001 C CNN
	1    11425 2300
	1    0    0    -1  
$EndComp
$Comp
L Device:C_Small C?
U 1 1 5BCE06EB
P 11875 2300
AR Path="/5B9EA780/5BCE06EB" Ref="C?"  Part="1" 
AR Path="/5BBE9BF1/5BCE06EB" Ref="C81"  Part="1" 
AR Path="/5C5D920E/5BCE06EB" Ref="C?"  Part="1" 
F 0 "C81" H 11967 2346 50  0000 L CNN
F 1 "0.1uF" H 11967 2255 50  0000 L CNN
F 2 "Capacitor_SMD:C_0805_2012Metric" H 11875 2300 50  0001 C CNN
F 3 "~" H 11875 2300 50  0001 C CNN
	1    11875 2300
	1    0    0    -1  
$EndComp
Wire Wire Line
	11875 2200 11875 2125
Wire Wire Line
	11875 2125 11425 2125
Wire Wire Line
	11425 2200 11425 2125
Connection ~ 11425 2125
Wire Wire Line
	11425 2125 11325 2125
$Comp
L power:GND #PWR0176
U 1 1 5BD08A24
P 11425 2500
F 0 "#PWR0176" H 11425 2250 50  0001 C CNN
F 1 "GND" H 11430 2327 50  0000 C CNN
F 2 "" H 11425 2500 50  0001 C CNN
F 3 "" H 11425 2500 50  0001 C CNN
	1    11425 2500
	-1   0    0    -1  
$EndComp
Wire Wire Line
	11425 2400 11425 2500
Connection ~ 11425 2400
Wire Wire Line
	11425 2400 11875 2400
Wire Wire Line
	12400 3075 12600 3075
Wire Wire Line
	12600 3075 12600 3175
Connection ~ 12400 3075
$Comp
L Device:R R?
U 1 1 5BD4EF32
P 7150 4075
AR Path="/5B9EA780/5BD4EF32" Ref="R?"  Part="1" 
AR Path="/5BD4EF32" Ref="R?"  Part="1" 
AR Path="/5C5D920E/5BD4EF32" Ref="R?"  Part="1" 
AR Path="/5BBE9BF1/5BD4EF32" Ref="R22"  Part="1" 
F 0 "R22" V 7000 4025 50  0000 L CNN
F 1 "1K" V 7075 4025 50  0000 L CNN
F 2 "Resistor_SMD:R_1206_3216Metric" V 7080 4075 50  0001 C CNN
F 3 "~" H 7150 4075 50  0001 C CNN
	1    7150 4075
	0    1    1    0   
$EndComp
$Comp
L power:GND #PWR0177
U 1 1 5BD5FF1B
P 6750 4075
F 0 "#PWR0177" H 6750 3825 50  0001 C CNN
F 1 "GND" H 6750 3925 50  0000 C CNN
F 2 "" H 6750 4075 50  0001 C CNN
F 3 "" H 6750 4075 50  0001 C CNN
	1    6750 4075
	-1   0    0    -1  
$EndComp
Wire Wire Line
	7000 4075 6750 4075
Wire Wire Line
	4525 3650 4525 3900
Text HLabel 7300 3875 0    50   Input ~ 0
VCC_MCU_3V3
$Comp
L Device:L L?
U 1 1 5BB7A09F
P 5250 3750
AR Path="/5C5D920E/5BB7A09F" Ref="L?"  Part="1" 
AR Path="/5BBE9BF1/5BB7A09F" Ref="L3"  Part="1" 
F 0 "L3" V 5440 3750 50  0000 C CNN
F 1 "L" V 5349 3750 50  0000 C CNN
F 2 "Inductor_SMD:L_0603_1608Metric" H 5250 3750 50  0001 C CNN
F 3 "~" H 5250 3750 50  0001 C CNN
	1    5250 3750
	0    -1   -1   0   
$EndComp
Connection ~ 5400 3750
Wire Wire Line
	12500 2125 11875 2125
Wire Wire Line
	12500 2125 12500 3175
Connection ~ 11875 2125
Wire Wire Line
	6300 4375 6300 3750
Wire Wire Line
	6300 3750 5875 3750
Connection ~ 5875 3750
Text Label 5100 3750 1    50   ~ 0
Vref+
Text Label 11025 2125 1    50   ~ 0
Vref+
Text Label 7300 5475 2    50   ~ 0
MCU_PG0
Text Label 7300 5575 2    50   ~ 0
MCU_PG1
Text Label 7300 5675 2    50   ~ 0
MCU_PG2
Text Label 7300 5775 2    50   ~ 0
MCU_PG3
Text Label 7300 5875 2    50   ~ 0
MCU_PG4
Text Label 7300 5975 2    50   ~ 0
MCU_PG5
Text Label 7300 6075 2    50   ~ 0
MCU_PG6
Text Label 7300 6175 2    50   ~ 0
MCU_PG7
Text Label 7300 6275 2    50   ~ 0
MCU_PG8
Text Label 7300 6375 2    50   ~ 0
MCU_PG9
Text Label 7300 6475 2    50   ~ 0
MCU_PG10
Text Label 7300 6575 2    50   ~ 0
MCU_PG11
Text Label 7300 6675 2    50   ~ 0
MCU_PG12
Text Label 7300 6875 2    50   ~ 0
MCU_PG14
Text Label 7300 6975 2    50   ~ 0
MCU_PG15
Text Label 7300 7275 2    50   ~ 0
MCU_PF1
Text Label 7300 7375 2    50   ~ 0
MCU_PF2
Text Label 7300 7475 2    50   ~ 0
MCU_PF3
Text Label 7300 7575 2    50   ~ 0
MCU_PF4
Text Label 7300 7675 2    50   ~ 0
MCU_PF5
Text Label 7300 7775 2    50   ~ 0
MCU_PF6
Text Label 7300 7875 2    50   ~ 0
MCU_PF7
Text Label 7300 7975 2    50   ~ 0
MCU_PF8
Text Label 7300 8075 2    50   ~ 0
MCU_PF9
Text Label 7300 8175 2    50   ~ 0
MCU_PF10
Text Label 7300 8275 2    50   ~ 0
MCU_PF11
Text Label 7300 8375 2    50   ~ 0
MCU_PF12
Text Label 7300 8475 2    50   ~ 0
MCU_PF13
Text Label 7300 8575 2    50   ~ 0
MCU_PF14
Text Label 7300 8675 2    50   ~ 0
MCU_PF15
Text Label 7300 7175 2    50   ~ 0
MCU_PF0
Text Label 16700 7275 0    50   ~ 0
MCU_PC1
Text Label 16700 7375 0    50   ~ 0
MCU_PC2
Text Label 16700 7475 0    50   ~ 0
MCU_PC3
Text Label 16700 7575 0    50   ~ 0
MCU_PC4
Text Label 16700 7675 0    50   ~ 0
MCU_PC5
Text Label 16700 7775 0    50   ~ 0
MCU_PC6
Text Label 16700 7875 0    50   ~ 0
MCU_PC7
Text Label 16700 7975 0    50   ~ 0
MCU_PC8
Text Label 16700 8075 0    50   ~ 0
MCU_PC9
Text Label 16700 8175 0    50   ~ 0
MCU_PC10
Text Label 16700 8275 0    50   ~ 0
MCU_PC11
Text Label 16700 8375 0    50   ~ 0
MCU_PC12
Text Label 16700 8475 0    50   ~ 0
MCU_PC13
Text Label 16700 7175 0    50   ~ 0
MCU_PC0
Text Label 16700 3875 0    50   ~ 0
MCU_PA1
Text Label 16700 3975 0    50   ~ 0
MCU_PA2
Text Label 16700 4075 0    50   ~ 0
MCU_PA3
Text Label 16700 4175 0    50   ~ 0
MCU_PA4
Text Label 16700 4275 0    50   ~ 0
MCU_PA5
Text Label 16700 4375 0    50   ~ 0
MCU_PA6
Text Label 16700 4475 0    50   ~ 0
MCU_PA7
Text Label 16700 4575 0    50   ~ 0
MCU_PA8
Text Label 16700 4675 0    50   ~ 0
MCU_PA9
Text Label 16700 4775 0    50   ~ 0
MCU_PA10
Text Label 16700 4875 0    50   ~ 0
MCU_PA11
Text Label 16700 3775 0    50   ~ 0
MCU_PA0
Text Label 16700 4975 0    50   ~ 0
MCU_PA12
Text Label 16700 5575 0    50   ~ 0
MCU_PB1
Text Label 16700 5475 0    50   ~ 0
MCU_PB0
Text Label 16700 6075 0    50   ~ 0
MCU_PB6
Text Label 16700 5975 0    50   ~ 0
MCU_PB5
Text Label 16700 6275 0    50   ~ 0
MCU_PB8
Text Label 16700 6375 0    50   ~ 0
MCU_PB9
Text Label 16700 6475 0    50   ~ 0
MCU_PB10
Text Label 16700 6575 0    50   ~ 0
MCU_PB11
Text Label 16700 6675 0    50   ~ 0
MCU_PB12
Text Label 16700 6775 0    50   ~ 0
MCU_PB13
Text Label 16700 6875 0    50   ~ 0
MCU_PB14
Text Label 16700 6975 0    50   ~ 0
MCU_PB15
$Comp
L power:GND #PWR0179
U 1 1 5BBACFB4
P 2950 6000
F 0 "#PWR0179" H 2950 5750 50  0001 C CNN
F 1 "GND" H 2955 5827 50  0000 C CNN
F 2 "" H 2950 6000 50  0001 C CNN
F 3 "" H 2950 6000 50  0001 C CNN
	1    2950 6000
	0    -1   1    0   
$EndComp
Text HLabel 2300 5800 0    50   Input ~ 0
VCC_MCU_3V3
Text HLabel 2300 5900 0    50   Input ~ 0
VCC_MCU_3V3
$Comp
L Connector_Generic:Conn_02x03_Counter_Clockwise J11
U 1 1 5BC2B9BC
P 2500 5900
F 0 "J11" H 2550 6217 50  0000 C CNN
F 1 "Conn_02x03_Power_MCU" H 2550 6126 50  0000 C CNN
F 2 "ICE40_ONION_MCU:PinSocket_2x03_P2.54mm_Vertical_modify" H 2500 5900 50  0001 C CNN
F 3 "~" H 2500 5900 50  0001 C CNN
	1    2500 5900
	1    0    0    -1  
$EndComp
Text HLabel 2875 8625 0    50   Input ~ 0
VCC_MCU_3V3
$Comp
L Connector_Generic:Conn_02x07_Counter_Clockwise J14
U 1 1 5BBC773D
P 19050 4150
F 0 "J14" H 19100 4667 50  0000 C CNN
F 1 "Conn_02x07_MCU_PA" H 19100 4576 50  0000 C CNN
F 2 "ICE40_ONION_MCU:PinSocket_2x07_P2.54mm_Vertical_modify" H 19050 4150 50  0001 C CNN
F 3 "~" H 19050 4150 50  0001 C CNN
	1    19050 4150
	1    0    0    -1  
$EndComp
Text Label 18850 3950 2    50   ~ 0
MCU_PA1
Text Label 18850 4050 2    50   ~ 0
MCU_PA2
Text Label 18850 4150 2    50   ~ 0
MCU_PA3
Text Label 18850 4250 2    50   ~ 0
MCU_PA4
Text Label 18850 4350 2    50   ~ 0
MCU_PA5
Text Label 18850 4450 2    50   ~ 0
MCU_PA6
Text Label 18850 3850 2    50   ~ 0
MCU_PA0
Text Label 19350 4450 0    50   ~ 0
MCU_PA7
Text Label 19350 4350 0    50   ~ 0
MCU_PA8
Text Label 19350 4250 0    50   ~ 0
MCU_PA9
Text Label 19350 4150 0    50   ~ 0
MCU_PA10
Text Label 19350 4050 0    50   ~ 0
MCU_PA11
Text Label 19350 3950 0    50   ~ 0
MCU_PA12
$Comp
L Connector_Generic:Conn_02x06_Counter_Clockwise J15
U 1 1 5BC04B5C
P 19050 5050
F 0 "J15" H 19100 5467 50  0000 C CNN
F 1 "Conn_02x06_MCU_PB" H 19100 5376 50  0000 C CNN
F 2 "ICE40_ONION_MCU:PinSocket_2x06_P2.54mm_Vertical_modify" H 19050 5050 50  0001 C CNN
F 3 "~" H 19050 5050 50  0001 C CNN
	1    19050 5050
	1    0    0    -1  
$EndComp
Text Label 18850 4950 2    50   ~ 0
MCU_PB1
Text Label 18850 4850 2    50   ~ 0
MCU_PB0
Text Label 18850 5150 2    50   ~ 0
MCU_PB6
Text Label 18850 5050 2    50   ~ 0
MCU_PB5
Text Label 18850 5250 2    50   ~ 0
MCU_PB8
Text Label 18850 5350 2    50   ~ 0
MCU_PB9
Text Label 19350 5350 0    50   ~ 0
MCU_PB10
Text Label 19350 5250 0    50   ~ 0
MCU_PB11
Text Label 19350 5150 0    50   ~ 0
MCU_PB12
Text Label 19350 5050 0    50   ~ 0
MCU_PB13
Text Label 19350 4950 0    50   ~ 0
MCU_PB14
Text Label 19350 4850 0    50   ~ 0
MCU_PB15
$Comp
L Connector_Generic:Conn_02x07_Counter_Clockwise J16
U 1 1 5BC6CBBA
P 19050 6025
F 0 "J16" H 19100 6542 50  0000 C CNN
F 1 "Conn_02x07_MCU_PC" H 19100 6451 50  0000 C CNN
F 2 "ICE40_ONION_MCU:PinSocket_2x07_P2.54mm_Vertical_modify" H 19050 6025 50  0001 C CNN
F 3 "~" H 19050 6025 50  0001 C CNN
	1    19050 6025
	1    0    0    -1  
$EndComp
Text Label 18850 5825 2    50   ~ 0
MCU_PC1
Text Label 18850 5925 2    50   ~ 0
MCU_PC2
Text Label 18850 6025 2    50   ~ 0
MCU_PC3
Text Label 18850 6125 2    50   ~ 0
MCU_PC4
Text Label 18850 6225 2    50   ~ 0
MCU_PC5
Text Label 18850 6325 2    50   ~ 0
MCU_PC6
Text Label 19350 6325 0    50   ~ 0
MCU_PC7
Text Label 18850 5725 2    50   ~ 0
MCU_PC0
Text Label 19350 6225 0    50   ~ 0
MCU_PC8
Text Label 19350 6125 0    50   ~ 0
MCU_PC9
Text Label 19350 6025 0    50   ~ 0
MCU_PC10
Text Label 19350 5925 0    50   ~ 0
MCU_PC11
Text Label 19350 5825 0    50   ~ 0
MCU_PC12
Text Label 19350 5725 0    50   ~ 0
MCU_PC13
Text Label 16700 9075 0    50   ~ 0
MCU_PD2
Text Label 19350 3850 0    50   ~ 0
MCU_PD2
Wire Wire Line
	4525 4400 4525 4275
Wire Wire Line
	4525 4275 7300 4275
Connection ~ 4525 4275
Wire Wire Line
	4525 4275 4525 4200
Wire Wire Line
	4275 4275 4525 4275
Wire Wire Line
	3975 4275 3800 4275
Wire Wire Line
	3800 4275 3800 4325
Text HLabel 4525 4275 2    50   Input ~ 0
VCC_MCU_1V2
Text HLabel 18675 2475 2    50   Input ~ 0
MCU_TACTILE_RESET
Text HLabel 7300 3775 0    50   Input ~ 0
MCU_TACTILE_RESET
Wire Wire Line
	2950 6000 2850 6000
Text Label 2800 5800 0    50   ~ 0
Vref+
Wire Wire Line
	2800 5900 2850 5900
Wire Wire Line
	2850 5900 2850 6000
Connection ~ 2850 6000
Wire Wire Line
	2850 6000 2800 6000
Wire Wire Line
	2850 6000 2850 6175
Wire Wire Line
	2850 6175 2300 6175
Wire Wire Line
	2300 6175 2300 6000
$Comp
L Connector_Generic:Conn_02x13_Counter_Clockwise J?
U 1 1 5BD0341B
P 3075 8225
AR Path="/5B9EA780/5BD0341B" Ref="J?"  Part="1" 
AR Path="/5BBE9BF1/5BD0341B" Ref="J3"  Part="1" 
F 0 "J3" H 3125 9042 50  0000 C CNN
F 1 "Conn_02x13_IOL_DPIO" H 3125 8951 50  0000 C CNN
F 2 "ICE40_ONION_MCU:PinSocket_2x13_P2.54mm_Vertical_modify" H 3075 8225 50  0001 C CNN
F 3 "~" H 3075 8225 50  0001 C CNN
	1    3075 8225
	1    0    0    -1  
$EndComp
Text Label 3375 8525 0    50   ~ 0
MCU_PG14
Text Label 3375 8425 0    50   ~ 0
MCU_PG12
Text Label 3375 8325 0    50   ~ 0
MCU_PG10
Text Label 3375 8125 0    50   ~ 0
MCU_PA12
Text Label 3375 8025 0    50   ~ 0
MCU_PA11
Text Label 3375 7925 0    50   ~ 0
MCU_PC9
Text Label 3375 7725 0    50   ~ 0
MCU_PG7
Text Label 3375 7625 0    50   ~ 0
MCU_PB15
Text Label 2875 7625 2    50   ~ 0
MCU_PB14
Text Label 2875 7725 2    50   ~ 0
MCU_PB13
Text Label 2875 7825 2    50   ~ 0
MCU_PB12
Text Label 2875 7925 2    50   ~ 0
MCU_PB11
Text Label 3375 8825 0    50   ~ 0
MCU_PC2
Text Label 3375 8225 0    50   ~ 0
MCU_PB10
Text Label 3375 8725 0    50   ~ 0
MCU_PF0
Text Label 3375 8625 0    50   ~ 0
MCU_PF2
Text HLabel 2875 8725 0    50   Input ~ 0
VCC_MCU_3V3
Text HLabel 2875 8825 0    50   Input ~ 0
VCC_MCU_3V3
$Comp
L power:GND #PWR0149
U 1 1 5BEFA63D
P 2875 8025
F 0 "#PWR0149" H 2875 7775 50  0001 C CNN
F 1 "GND" H 2880 7852 50  0000 C CNN
F 2 "" H 2875 8025 50  0001 C CNN
F 3 "" H 2875 8025 50  0001 C CNN
	1    2875 8025
	0    1    1    0   
$EndComp
Text Label 3375 7825 0    50   ~ 0
MCU_PG5
Wire Wire Line
	2875 8125 2875 8225
Wire Wire Line
	2875 8325 2875 8225
Connection ~ 2875 8225
Wire Wire Line
	2875 8325 2875 8425
Connection ~ 2875 8325
Wire Wire Line
	2875 8125 2875 8025
Connection ~ 2875 8125
Connection ~ 2875 8025
Text HLabel 2875 8525 0    50   Input ~ 0
VCC_MCU_3V3
Wire Bus Line
	17600 9925 17600 10125
Wire Bus Line
	6650 9175 6650 9575
Wire Bus Line
	17400 8975 17400 10475
Wire Bus Line
	6650 9675 6650 10475
$EndSCHEMATC
