PCBNEW-LibModule-V1  
# encoding utf-8
Units mm
$INDEX
XTAL_ASDM1-25.000MHZ-LC-T
$EndINDEX
$MODULE XTAL_ASDM1-25.000MHZ-LC-T
Po 0 0 0 15 00000000 00000000 ~~
Li XTAL_ASDM1-25.000MHZ-LC-T
Cd 
Sc 00000000
At SMD
Op 0 0 0
.SolderMask 0
.SolderPaste 0
T0 -0.877261 -6.07604 1.38162 1.38162 0 0.05 N V 21 "XTAL_ASDM1-25.000MHZ-LC-T"
T1 0.335007 6.21044 1.34198 1.34198 0 0.05 N V 21 "VAL**"
DS 1 -1.25 1 1.25 0.127 24
DS 1 1.25 -1 1.25 0.127 24
DS -1 1.25 -1 -1.25 0.127 24
DS -1 -1.25 1 -1.25 0.127 24
DC -0.635 -0.635 -0.435 -0.635 0.127 24
DC -1.835 -0.805 -1.765 -0.805 0.16 21
DS 1.45 -1.5 1.45 1.5 0.05 26
DS 1.45 1.5 -1.45 1.5 0.05 26
DS -1.45 1.5 -1.45 -1.5 0.05 26
DS -1.45 -1.5 1.45 -1.5 0.05 26
$PAD
Sh "4" R 0.65 0.85 0 0 2700
At SMD N 00888000
.SolderMask 0
.SolderPaste 0
Ne 0 ""
Po 0.775 -0.825
$EndPAD
$PAD
Sh "3" R 0.65 0.85 0 0 2700
At SMD N 00888000
.SolderMask 0
.SolderPaste 0
Ne 0 ""
Po 0.775 0.825
$EndPAD
$PAD
Sh "2" R 0.65 0.85 0 0 2700
At SMD N 00888000
.SolderMask 0
.SolderPaste 0
Ne 0 ""
Po -0.775 0.825
$EndPAD
$PAD
Sh "1" R 0.65 0.85 0 0 2700
At SMD N 00888000
.SolderMask 0
.SolderPaste 0
Ne 0 ""
Po -0.775 -0.825
$EndPAD
$EndMODULE XTAL_ASDM1-25.000MHZ-LC-T
